"stype"  ;"qualifiedname"  ;"qualifiedname"
1  ;""  ;"org.jfree.text.TextBox.equals(Object)"
1  ;""  ;"org.jfree.chart.plot.PiePlot.DEBUG_DRAW_INTERIOR"
1  ;""  ;"org.jfree.chart.plot.PiePlot.DEBUG_DRAW_LINK_AREA"
1  ;""  ;"org.jfree.chart.plot.PiePlot.DEBUG_DRAW_PIE_AREA"
1  ;""  ;"org.jfree.chart.renderer.category.StatisticalBarRenderer.errorIndicatorStroke"
1  ;""  ;"org.jfree.chart.plot.dial.DialPointer.Pointer.fillPaint"
1  ;""  ;"org.jfree.chart.plot.dial.DialPointer.Pointer.outlinePaint"
1  ;""  ;"org.jfree.chart.HashUtilities.hashCode(int,int)"
1  ;""  ;"org.jfree.chart.HashUtilities.hashCode(int,Object)"
1  ;""  ;"org.jfree.chart.labels.AbstractCategoryItemLabelGenerator.hashCode()"
1  ;""  ;"org.jfree.chart.labels.AbstractXYItemLabelGenerator.hashCode()"
1  ;""  ;"org.jfree.chart.labels.AbstractPieItemLabelGenerator.hashCode()"
1  ;""  ;"org.jfree.chart.labels.BubbleXYItemLabelGenerator.hashCode()"
1  ;""  ;"org.jfree.chart.needle.PointerNeedle.hashCode()"
1  ;""  ;"org.jfree.chart.needle.MeterNeedle.hashCode()"
1  ;""  ;"org.jfree.chart.needle.WindNeedle.hashCode()"
1  ;""  ;"org.jfree.chart.needle.ArrowNeedle.hashCode()"
1  ;""  ;"org.jfree.chart.needle.ShipNeedle.hashCode()"
1  ;""  ;"org.jfree.chart.needle.PinNeedle.hashCode()"
1  ;""  ;"org.jfree.chart.needle.MiddlePinNeedle.hashCode()"
1  ;""  ;"org.jfree.chart.needle.PlumNeedle.hashCode()"
1  ;""  ;"org.jfree.chart.needle.LongNeedle.hashCode()"
1  ;""  ;"org.jfree.chart.needle.LineNeedle.hashCode()"
1  ;""  ;"org.jfree.chart.plot.PlotOrientation.hashCode()"
1  ;""  ;"org.jfree.chart.plot.DialShape.hashCode()"
1  ;""  ;"org.jfree.chart.plot.DatasetRenderingOrder.hashCode()"
1  ;""  ;"org.jfree.chart.plot.SeriesRenderingOrder.hashCode()"
1  ;""  ;"org.jfree.chart.plot.PieLabelRecord.equals(Object)"
1  ;""  ;"org.jfree.chart.renderer.Outlier.equals(Object)"
1  ;""  ;"org.jfree.chart.plot.dial.StandardDialScale.getLowerBound()"
1  ;""  ;"org.jfree.chart.plot.dial.StandardDialScale.setLowerBound(double)"
1  ;""  ;"org.jfree.chart.plot.dial.StandardDialScale.getUpperBound()"
1  ;""  ;"org.jfree.chart.plot.dial.StandardDialScale.setUpperBound(double)"
1  ;""  ;"org.jfree.chart.plot.dial.StandardDialScale.getMinorTickStroke()"
1  ;""  ;"org.jfree.chart.plot.dial.StandardDialScale.setMinorTickStroke(Stroke)"
1  ;""  ;"org.jfree.chart.renderer.category.StatisticalBarRenderer.getErrorIndicatorStroke()"
1  ;""  ;"org.jfree.chart.renderer.category.StatisticalBarRenderer.setErrorIndicatorStroke(Stroke)"
1  ;""  ;"org.jfree.chart.plot.dial.DialPointer.Pointer.getFillPaint()"
1  ;""  ;"org.jfree.chart.plot.dial.DialPointer.Pointer.setFillPaint(Paint)"
1  ;""  ;"org.jfree.chart.plot.dial.DialPointer.Pointer.getOutlinePaint()"
1  ;""  ;"org.jfree.chart.plot.dial.DialPointer.Pointer.setOutlinePaint(Paint)"
1  ;""  ;"org.jfree.chart.plot.dial.DialPointer.Pointer.writeObject(ObjectOutputStream)"
1  ;""  ;"org.jfree.chart.plot.dial.DialPointer.Pointer.readObject(ObjectInputStream)"
