"stype"  ;"qualifiedname"  ;"qualifiedname"
1  ;""  ;"org.jfree.ui.RectangleAnchor.BOTTOM_LEFT"
1  ;""  ;"org.jfree.ui.RectangleAnchor.BOTTOM_RIGHT"
1  ;""  ;"org.jfree.ui.RectangleAnchor.TOP_RIGHT"
1  ;""  ;"org.jfree.data.time.ohlc"
1  ;""  ;"org.jfree.data.time.ohlc.OHLC.open"
1  ;""  ;"org.jfree.data.time.ohlc.OHLC.close"
1  ;""  ;"org.jfree.data.time.ohlc.OHLC.high"
1  ;""  ;"org.jfree.data.time.ohlc.OHLC.low"
1  ;""  ;"org.jfree.data.time.ohlc.OHLCSeriesCollection.data"
1  ;""  ;"org.jfree.data.time.ohlc.OHLCSeriesCollection.xPosition"
1  ;""  ;"org.jfree.chart.renderer.GrayPaintScale.lowerBound"
1  ;""  ;"org.jfree.chart.renderer.LookupPaintScale.lowerBound"
1  ;""  ;"org.jfree.chart.renderer.GrayPaintScale.upperBound"
1  ;""  ;"org.jfree.chart.renderer.LookupPaintScale.upperBound"
1  ;""  ;"org.jfree.chart.renderer.LookupPaintScale.defaultPaint"
1  ;""  ;"org.jfree.chart.renderer.LookupPaintScale.lookupTable"
1  ;""  ;"org.jfree.chart.renderer.xy.XYBlockRenderer.blockWidth"
1  ;""  ;"org.jfree.chart.renderer.xy.XYBlockRenderer.blockHeight"
1  ;""  ;"org.jfree.chart.renderer.xy.XYBlockRenderer.blockAnchor"
1  ;""  ;"org.jfree.chart.renderer.xy.XYBlockRenderer.xOffset"
1  ;""  ;"org.jfree.chart.renderer.xy.XYBlockRenderer.yOffset"
1  ;""  ;"org.jfree.chart.renderer.xy.XYBlockRenderer.paintScale"
1  ;""  ;"org.jfree.chart.title.PaintScaleLegend.scale"
1  ;""  ;"org.jfree.chart.title.PaintScaleLegend.axis"
1  ;""  ;"org.jfree.chart.title.PaintScaleLegend.axisLocation"
1  ;""  ;"org.jfree.chart.title.PaintScaleLegend.axisOffset"
1  ;""  ;"org.jfree.chart.title.PaintScaleLegend.stripWidth"
1  ;""  ;"org.jfree.chart.title.PaintScaleLegend.stripOutlineVisible"
1  ;""  ;"org.jfree.chart.title.PaintScaleLegend.stripOutlinePaint"
1  ;""  ;"org.jfree.chart.title.PaintScaleLegend.stripOutlineStroke"
1  ;""  ;"org.jfree.chart.title.PaintScaleLegend.backgroundPaint"
1  ;""  ;"org.jfree.chart.title.PaintScaleLegend.SUBDIVISIONS"
1  ;""  ;"org.jfree.chart.renderer.LookupPaintScale.PaintItem.value"
1  ;""  ;"org.jfree.chart.renderer.LookupPaintScale.PaintItem.paint"
1  ;""  ;"org.jfree.chart.LegendItem.fillPaintTransformer"
1  ;""  ;"org.jfree.chart.title.LegendGraphic.fillPaintTransformer"
1  ;""  ;"org.jfree.chart.annotations.XYImageAnnotation.anchor"
1  ;""  ;"org.jfree.chart.plot.PiePlot.legendLabelURLGenerator"
1  ;""  ;"org.jfree.chart.plot.CrosshairState.domainAxisIndex"
1  ;""  ;"org.jfree.chart.plot.CrosshairState.rangeAxisIndex"
1  ;""  ;"org.jfree.chart.plot.SpiderWebPlot.axisLinePaint"
1  ;""  ;"org.jfree.chart.plot.SpiderWebPlot.axisLineStroke"
1  ;""  ;"org.jfree.chart.renderer.xy.XYDifferenceRenderer.roundXCoordinates"
1  ;""  ;"org.jfree.data.time.ohlc.OHLCItem.getPeriod()"
1  ;""  ;"org.jfree.data.time.ohlc.OHLCSeries.getPeriod(int)"
1  ;""  ;"org.jfree.data.time.ohlc.OHLCItem.getYValue()"
1  ;""  ;"org.jfree.data.xy.XYBarDataset.getYValue(int,int)"
1  ;""  ;"org.jfree.data.time.ohlc.OHLCItem.getCloseValue()"
1  ;""  ;"org.jfree.data.time.ohlc.OHLCSeriesCollection.getCloseValue(int,int)"
1  ;""  ;"org.jfree.data.time.ohlc.OHLCItem.getOpenValue()"
1  ;""  ;"org.jfree.data.time.ohlc.OHLCSeriesCollection.getOpenValue(int,int)"
1  ;""  ;"org.jfree.data.time.ohlc.OHLCItem.getHighValue()"
1  ;""  ;"org.jfree.data.time.ohlc.OHLCSeriesCollection.getHighValue(int,int)"
1  ;""  ;"org.jfree.data.time.ohlc.OHLCItem.getLowValue()"
1  ;""  ;"org.jfree.data.time.ohlc.OHLCSeriesCollection.getLowValue(int,int)"
1  ;""  ;"org.jfree.data.time.ohlc.OHLC.getOpen()"
1  ;""  ;"org.jfree.data.time.ohlc.OHLCSeriesCollection.getOpen(int,int)"
1  ;""  ;"org.jfree.data.time.ohlc.OHLC.getHigh()"
1  ;""  ;"org.jfree.data.time.ohlc.OHLCSeriesCollection.getHigh(int,int)"
1  ;""  ;"org.jfree.data.time.ohlc.OHLC.getLow()"
1  ;""  ;"org.jfree.data.time.ohlc.OHLCSeriesCollection.getLow(int,int)"
1  ;""  ;"org.jfree.data.time.ohlc.OHLC.getClose()"
1  ;""  ;"org.jfree.data.time.ohlc.OHLCSeriesCollection.getClose(int,int)"
1  ;""  ;"org.jfree.data.time.ohlc.OHLC.equals(Object)"
1  ;""  ;"org.jfree.data.time.ohlc.OHLCSeriesCollection.equals(Object)"
1  ;""  ;"org.jfree.chart.renderer.GrayPaintScale.equals(Object)"
1  ;""  ;"org.jfree.chart.renderer.LookupPaintScale.equals(Object)"
1  ;""  ;"org.jfree.chart.renderer.xy.XYBlockRenderer.equals(Object)"
1  ;""  ;"org.jfree.chart.title.PaintScaleLegend.equals(Object)"
1  ;""  ;"org.jfree.chart.renderer.LookupPaintScale.PaintItem.equals(Object)"
1  ;""  ;"org.jfree.chart.renderer.category.BarRenderer3D.equals(Object)"
1  ;""  ;"org.jfree.chart.renderer.category.LineRenderer3D.equals(Object)"
1  ;""  ;"org.jfree.chart.renderer.xy.StackedXYAreaRenderer2.equals(Object)"
1  ;""  ;"org.jfree.chart.renderer.xy.XYBubbleRenderer.equals(Object)"
1  ;""  ;"org.jfree.chart.renderer.xy.XYAreaRenderer2.equals(Object)"
1  ;""  ;"org.jfree.data.xy.DefaultHighLowDataset.equals(Object)"
1  ;""  ;"org.jfree.data.xy.XYBarDataset.equals(Object)"
1  ;""  ;"org.jfree.data.time.ohlc.OHLCSeries.getDataItem(int)"
1  ;""  ;"org.jfree.data.time.ohlc.OHLCSeries.add(RegularTimePeriod,double,double,double,double)"
1  ;""  ;"org.jfree.chart.renderer.LookupPaintScale.add(Number,Paint)"
1  ;""  ;"org.jfree.data.time.ohlc.OHLCSeriesCollection.addSeries(OHLCSeries)"
1  ;""  ;"org.jfree.data.time.ohlc.OHLCSeriesCollection.getSeriesCount()"
1  ;""  ;"org.jfree.data.time.ohlc.OHLCSeriesCollection.getSeries(int)"
1  ;""  ;"org.jfree.data.time.ohlc.OHLCSeriesCollection.getSeriesKey(int)"
1  ;""  ;"org.jfree.data.time.ohlc.OHLCSeriesCollection.getItemCount(int)"
1  ;""  ;"org.jfree.data.time.ohlc.OHLCSeriesCollection.getX(RegularTimePeriod)"
1  ;""  ;"org.jfree.data.time.ohlc.OHLCSeriesCollection.getX(int,int)"
1  ;""  ;"org.jfree.chart.annotations.XYImageAnnotation.getX()"
1  ;""  ;"org.jfree.data.time.ohlc.OHLCSeriesCollection.getXValue(int,int)"
1  ;""  ;"org.jfree.data.xy.XYBarDataset.getXValue(int,int)"
1  ;""  ;"org.jfree.data.time.ohlc.OHLCSeriesCollection.getY(int,int)"
1  ;""  ;"org.jfree.chart.annotations.XYImageAnnotation.getY()"
1  ;""  ;"org.jfree.data.time.ohlc.OHLCSeriesCollection.getVolume(int,int)"
1  ;""  ;"org.jfree.data.time.ohlc.OHLCSeriesCollection.getVolumeValue(int,int)"
1  ;""  ;"org.jfree.data.time.ohlc.OHLCSeriesCollection.clone()"
1  ;""  ;"org.jfree.chart.renderer.GrayPaintScale.clone()"
1  ;""  ;"org.jfree.chart.renderer.LookupPaintScale.clone()"
1  ;""  ;"org.jfree.chart.renderer.xy.XYBlockRenderer.clone()"
1  ;""  ;"org.jfree.chart.plot.SpiderWebPlot.clone()"
1  ;""  ;"org.jfree.chart.util.RelativeDateFormat.clone()"
1  ;""  ;"org.jfree.data.xy.XYSeriesCollection.clone()"
1  ;""  ;"org.jfree.data.xy.MatrixSeriesCollection.clone()"
1  ;""  ;"org.jfree.data.xy.DefaultIntervalXYDataset.clone()"
1  ;""  ;"org.jfree.data.xy.XIntervalSeriesCollection.clone()"
1  ;""  ;"org.jfree.data.xy.YIntervalSeriesCollection.clone()"
1  ;""  ;"org.jfree.data.xy.XYBarDataset.clone()"
1  ;""  ;"org.jfree.chart.renderer.GrayPaintScale.getLowerBound()"
1  ;""  ;"org.jfree.chart.renderer.LookupPaintScale.getLowerBound()"
1  ;""  ;"org.jfree.chart.renderer.GrayPaintScale.getUpperBound()"
1  ;""  ;"org.jfree.chart.renderer.LookupPaintScale.getUpperBound()"
1  ;""  ;"org.jfree.chart.renderer.GrayPaintScale.getPaint(double)"
1  ;""  ;"org.jfree.chart.renderer.LookupPaintScale.getPaint(double)"
1  ;""  ;"org.jfree.chart.renderer.LookupPaintScale.getDefaultPaint()"
1  ;""  ;"org.jfree.chart.renderer.LookupPaintScale.writeObject(ObjectOutputStream)"
1  ;""  ;"org.jfree.chart.title.PaintScaleLegend.writeObject(ObjectOutputStream)"
1  ;""  ;"org.jfree.chart.renderer.LookupPaintScale.PaintItem.writeObject(ObjectOutputStream)"
1  ;""  ;"org.jfree.chart.renderer.category.LineRenderer3D.writeObject(ObjectOutputStream)"
1  ;""  ;"org.jfree.chart.renderer.LookupPaintScale.readObject(ObjectInputStream)"
1  ;""  ;"org.jfree.chart.title.PaintScaleLegend.readObject(ObjectInputStream)"
1  ;""  ;"org.jfree.chart.renderer.LookupPaintScale.PaintItem.readObject(ObjectInputStream)"
1  ;""  ;"org.jfree.chart.renderer.category.LineRenderer3D.readObject(ObjectInputStream)"
1  ;""  ;"org.jfree.chart.renderer.xy.XYBlockRenderer.updateOffsets()"
1  ;""  ;"org.jfree.chart.renderer.xy.XYBlockRenderer.getBlockWidth()"
1  ;""  ;"org.jfree.chart.renderer.xy.XYBlockRenderer.setBlockWidth(double)"
1  ;""  ;"org.jfree.chart.renderer.xy.XYBlockRenderer.getBlockHeight()"
1  ;""  ;"org.jfree.chart.renderer.xy.XYBlockRenderer.setBlockHeight(double)"
1  ;""  ;"org.jfree.chart.renderer.xy.XYBlockRenderer.getBlockAnchor()"
1  ;""  ;"org.jfree.chart.renderer.xy.XYBlockRenderer.setBlockAnchor(RectangleAnchor)"
1  ;""  ;"org.jfree.chart.renderer.xy.XYBlockRenderer.getPaintScale()"
1  ;""  ;"org.jfree.chart.renderer.xy.XYBlockRenderer.setPaintScale(PaintScale)"
1  ;""  ;"org.jfree.chart.renderer.xy.XYBlockRenderer.findDomainBounds(XYDataset)"
1  ;""  ;"org.jfree.chart.renderer.xy.XYBlockRenderer.findRangeBounds(XYDataset)"
1  ;""  ;"org.jfree.chart.renderer.xy.XYBlockRenderer.drawItem(Graphics2D,XYItemRendererState,Rectangle2D,PlotRenderingInfo,XYPlot,ValueAxis,ValueAxis,XYDataset,int,int,CrosshairState,int)"
1  ;""  ;"org.jfree.chart.title.PaintScaleLegend.getScale()"
1  ;""  ;"org.jfree.chart.title.PaintScaleLegend.setScale(PaintScale)"
1  ;""  ;"org.jfree.chart.title.PaintScaleLegend.getAxis()"
1  ;""  ;"org.jfree.chart.title.PaintScaleLegend.setAxis(ValueAxis)"
1  ;""  ;"org.jfree.chart.title.PaintScaleLegend.getAxisLocation()"
1  ;""  ;"org.jfree.chart.title.PaintScaleLegend.setAxisLocation(AxisLocation)"
1  ;""  ;"org.jfree.chart.title.PaintScaleLegend.getAxisOffset()"
1  ;""  ;"org.jfree.chart.title.PaintScaleLegend.setAxisOffset(double)"
1  ;""  ;"org.jfree.chart.title.PaintScaleLegend.getStripWidth()"
1  ;""  ;"org.jfree.chart.title.PaintScaleLegend.setStripWidth(double)"
1  ;""  ;"org.jfree.chart.title.PaintScaleLegend.isStripOutlineVisible()"
1  ;""  ;"org.jfree.chart.title.PaintScaleLegend.setStripOutlineVisible(boolean)"
1  ;""  ;"org.jfree.chart.title.PaintScaleLegend.getStripOutlinePaint()"
1  ;""  ;"org.jfree.chart.title.PaintScaleLegend.setStripOutlinePaint(Paint)"
1  ;""  ;"org.jfree.chart.title.PaintScaleLegend.getStripOutlineStroke()"
1  ;""  ;"org.jfree.chart.title.PaintScaleLegend.setStripOutlineStroke(Stroke)"
1  ;""  ;"org.jfree.chart.title.PaintScaleLegend.getBackgroundPaint()"
1  ;""  ;"org.jfree.chart.title.PaintScaleLegend.setBackgroundPaint(Paint)"
1  ;""  ;"org.jfree.chart.title.PaintScaleLegend.arrange(Graphics2D,RectangleConstraint)"
1  ;""  ;"org.jfree.chart.title.PaintScaleLegend.arrangeRR(Graphics2D,Range,Range)"
1  ;""  ;"org.jfree.chart.title.PaintScaleLegend.draw(Graphics2D,Rectangle2D)"
1  ;""  ;"org.jfree.chart.title.PaintScaleLegend.draw(Graphics2D,Rectangle2D,Object)"
1  ;""  ;"org.jfree.chart.ChartFactory.createBoxAndWhiskerChart(String,String,String,BoxAndWhiskerCategoryDataset,boolean)"
1  ;""  ;"org.jfree.chart.LegendItem.getFillPaintTransformer()"
1  ;""  ;"org.jfree.chart.title.LegendGraphic.getFillPaintTransformer()"
1  ;""  ;"org.jfree.chart.LegendItem.setFillPaintTransformer(GradientPaintTransformer)"
1  ;""  ;"org.jfree.chart.title.LegendGraphic.setFillPaintTransformer(GradientPaintTransformer)"
1  ;""  ;"org.jfree.chart.annotations.XYImageAnnotation.getImage()"
1  ;""  ;"org.jfree.chart.annotations.XYImageAnnotation.getImageAnchor()"
1  ;""  ;"org.jfree.chart.axis.DateAxis.getTimeZone()"
1  ;""  ;"org.jfree.chart.axis.DateAxis.setTimeZone(TimeZone)"
1  ;""  ;"org.jfree.chart.plot.PiePlot.getLegendLabelURLGenerator()"
1  ;""  ;"org.jfree.chart.plot.PiePlot.setLegendLabelURLGenerator(PieURLGenerator)"
1  ;""  ;"org.jfree.chart.plot.XYPlot.drawDomainCrosshair(Graphics2D,Rectangle2D,PlotOrientation,double,ValueAxis,Stroke,Paint)"
1  ;""  ;"org.jfree.chart.plot.XYPlot.drawRangeCrosshair(Graphics2D,Rectangle2D,PlotOrientation,double,ValueAxis,Stroke,Paint)"
1  ;""  ;"org.jfree.chart.plot.CrosshairState.getDomainAxisIndex()"
1  ;""  ;"org.jfree.chart.plot.CrosshairState.getRangeAxisIndex()"
1  ;""  ;"org.jfree.chart.plot.CrosshairState.updateCrosshairPoint(double,double,int,int,double,double,PlotOrientation)"
1  ;""  ;"org.jfree.chart.plot.CrosshairState.updateCrosshairX(double,int)"
1  ;""  ;"org.jfree.chart.plot.CrosshairState.updateCrosshairY(double,int)"
1  ;""  ;"org.jfree.chart.plot.SpiderWebPlot.getAxisLinePaint()"
1  ;""  ;"org.jfree.chart.plot.SpiderWebPlot.setAxisLinePaint(Paint)"
1  ;""  ;"org.jfree.chart.plot.SpiderWebPlot.getAxisLineStroke()"
1  ;""  ;"org.jfree.chart.plot.SpiderWebPlot.setAxisLineStroke(Stroke)"
1  ;""  ;"org.jfree.chart.renderer.category.StackedBarRenderer3D.createStackedValueList(CategoryDataset,Comparable,double,boolean)"
1  ;""  ;"org.jfree.chart.renderer.category.StackedBarRenderer3D.drawStackHorizontal(List,Comparable,Graphics2D,CategoryItemRendererState,Rectangle2D,CategoryPlot,CategoryAxis,ValueAxis,CategoryDataset)"
1  ;""  ;"org.jfree.chart.renderer.category.StackedBarRenderer3D.drawStackVertical(List,Comparable,Graphics2D,CategoryItemRendererState,Rectangle2D,CategoryPlot,CategoryAxis,ValueAxis,CategoryDataset)"
1  ;""  ;"org.jfree.chart.renderer.category.StackedBarRenderer3D.createHorizontalBlock(double,double,double,double,boolean)"
1  ;""  ;"org.jfree.chart.renderer.category.StackedBarRenderer3D.createVerticalBlock(double,double,double,double,boolean)"
1  ;""  ;"org.jfree.chart.renderer.xy.StackedXYAreaRenderer2.getRoundXCoordinates()"
1  ;""  ;"org.jfree.chart.renderer.xy.XYDifferenceRenderer.getRoundXCoordinates()"
1  ;""  ;"org.jfree.chart.renderer.xy.StackedXYAreaRenderer2.setRoundXCoordinates(boolean)"
1  ;""  ;"org.jfree.chart.renderer.xy.XYDifferenceRenderer.setRoundXCoordinates(boolean)"
1  ;""  ;"org.jfree.chart.renderer.xy.AbstractXYItemRenderer.updateCrosshairValues(CrosshairState,double,double,int,int,double,double,PlotOrientation)"
1  ;""  ;"org.jfree.chart.title.LegendGraphic.hashCode()"
1  ;""  ;"org.jfree.chart.util.RelativeDateFormat.hashCode()"
1  ;""  ;"org.jfree.data.xy.DefaultXYDataset.hashCode()"
1  ;""  ;"org.jfree.data.xy.DefaultXYZDataset.hashCode()"
1  ;""  ;"org.jfree.data.xy.DefaultIntervalXYDataset.hashCode()"
1  ;""  ;"org.jfree.data.xy.XYSeries.toArray()"
1  ;""  ;"org.jfree.data.xy.XYBarDataset.getUnderlyingDataset()"
1  ;""  ;"org.jfree.data.xy.XYBarDataset.getBarWidth()"
1  ;""  ;"org.jfree.data.xy.XYBarDataset.setBarWidth(double)"
1  ;""  ;"org.jfree.data.xy.XYBarDataset.getStartXValue(int,int)"
1  ;""  ;"org.jfree.data.xy.XYBarDataset.getEndXValue(int,int)"
1  ;""  ;"org.jfree.data.xy.XYBarDataset.getStartYValue(int,int)"
1  ;""  ;"org.jfree.data.xy.XYBarDataset.getEndYValue(int,int)"
1  ;""  ;"org.jfree.chart.renderer.PaintScale.getLowerBound()"
1  ;""  ;"org.jfree.chart.renderer.PaintScale.getUpperBound()"
1  ;""  ;"org.jfree.chart.renderer.PaintScale.getPaint(double)"
1  ;""  ;"org.jfree.data.time.ohlc.OHLCItem.OHLCItem(RegularTimePeriod,double,double,double,double)"
1  ;""  ;"org.jfree.data.time.ohlc.OHLC.OHLC(double,double,double,double)"
1  ;""  ;"org.jfree.data.time.ohlc.OHLCSeries.OHLCSeries(Comparable)"
1  ;""  ;"org.jfree.data.time.ohlc.OHLCSeriesCollection.OHLCSeriesCollection()"
1  ;""  ;"org.jfree.chart.renderer.GrayPaintScale.GrayPaintScale()"
1  ;""  ;"org.jfree.chart.renderer.GrayPaintScale.GrayPaintScale(double,double)"
1  ;""  ;"org.jfree.chart.renderer.LookupPaintScale.LookupPaintScale()"
1  ;""  ;"org.jfree.chart.renderer.LookupPaintScale.LookupPaintScale(double,double,Paint)"
1  ;""  ;"org.jfree.chart.renderer.xy.XYBlockRenderer.XYBlockRenderer()"
1  ;""  ;"org.jfree.chart.title.PaintScaleLegend.PaintScaleLegend(PaintScale,ValueAxis)"
1  ;""  ;"org.jfree.chart.renderer.LookupPaintScale.PaintItem.PaintItem(Number,Paint)"
1  ;""  ;"org.jfree.chart.annotations.XYImageAnnotation.XYImageAnnotation(double,double,Image,RectangleAnchor)"
1  ;""  ;"org.jfree.chart.labels.StandardXYToolTipGenerator.StandardXYToolTipGenerator(String,NumberFormat,DateFormat)"
1  ;""  ;"org.jfree.chart.labels.AbstractXYItemLabelGenerator.AbstractXYItemLabelGenerator(String,NumberFormat,DateFormat)"
1  ;""  ;"org.jfree.chart.labels.StandardXYItemLabelGenerator.StandardXYItemLabelGenerator(String,NumberFormat,DateFormat)"
1  ;""  ;"org.jfree.chart.renderer.LookupPaintScale.PaintItem"
1  ;""  ;"org.jfree.data.time.ohlc.OHLCItem"
1  ;""  ;"org.jfree.data.time.ohlc.OHLC"
1  ;""  ;"org.jfree.data.time.ohlc.OHLCSeries"
1  ;""  ;"org.jfree.data.time.ohlc.OHLCSeriesCollection"
1  ;""  ;"org.jfree.chart.renderer.GrayPaintScale"
1  ;""  ;"org.jfree.chart.renderer.LookupPaintScale"
1  ;""  ;"org.jfree.chart.renderer.xy.XYBlockRenderer"
1  ;""  ;"org.jfree.chart.title.PaintScaleLegend"
1  ;""  ;"org.jfree.chart.renderer.PaintScale"
