System,#,Fo,Rc,Pr,Fo,Rc,Pr,Fo,Rc,Pr
ant-1.8.2,99,26,0.263,0.263,43,0.434,0.221,51,0.515,0.177
argouml-0.34,98,24,0.245,0.245,39,0.398,0.200,53,0.541,0.182
checkstyle-5.6,100,41,0.410,0.410,64,0.640,0.323,77,0.770,0.266
findbugs-1.3.9,99,27,0.273,0.273,49,0.495,0.249,67,0.677,0.231
freemind-0.9.0,100,34,0.340,0.340,46,0.460,0.232,61,0.610,0.207
jasperreports-3.7.4,100,28,0.280,0.280,48,0.480,0.241,60,0.600,0.202
jedit-4.3.2,99,26,0.263,0.263,52,0.525,0.264,60,0.606,0.205
jfreechart-1.0.13,100,15,0.150,0.150,35,0.350,0.176,50,0.500,0.168
log4j-2.0-beta,88,30,0.341,0.341,50,0.568,0.287,62,0.705,0.239
quartz-1.8.3,70,19,0.271,0.271,31,0.443,0.221,41,0.586,0.197
squirrel_sql-3.1.2,30,9,0.300,0.300,12,0.400,0.203,15,0.500,0.170
tomcat-7.0.2,100,30,0.300,0.300,37,0.370,0.188,47,0.470,0.160
xerces-2.10.0,99,34,0.343,0.343,44,0.444,0.222,55,0.556,0.186
Total,1182,343,0.290,0.290,550,0.465,0.234,699,0.591,0.201
