System,#,Fo,Rc,Pr,Fo,Rc,Pr,Fo,Rc,Pr
ant-1.8.2,99,29,29.3,29.3,38,38.4,19.5,48,48.5,16.7
argouml-0.34,98,27,27.6,27.6,35,35.7,17.9,47,48.0,16.2
checkstyle-5.6,100,37,37.0,37.0,56,56.0,28.3,67,67.0,23.2
findbugs-1.3.9,99,30,30.3,30.3,42,42.4,21.3,57,57.6,19.7
freemind-0.9.0,100,38,38.0,38.0,43,43.0,21.7,55,55.0,18.6
jasperreports-3.7.4,100,33,33.0,33.0,50,50.0,25.1,55,55.0,18.5
jedit-4.3.2,99,30,30.3,30.3,49,49.5,24.9,59,59.6,20.2
jfreechart-1.0.13,100,22,22.0,22.0,38,38.0,19.1,52,52.0,17.5
log4j-2.0-beta,88,30,34.1,34.1,46,52.3,26.4,52,59.1,20.1
quartz-1.8.3,70,18,25.7,25.7,26,37.1,18.6,38,54.3,18.3
squirrel_sql-3.1.2,30,8,26.7,26.7,12,40.0,20.3,12,40.0,13.6
tomcat-7.0.2,100,28,28.0,28.0,34,34.0,17.3,48,48.0,16.4
xerces-2.10.0,99,34,34.3,34.3,45,45.5,22.7,56,56.6,18.9
Total,1182,364,30.8,30.8,514,43.5,21.9,646,54.7,18.5
