range,r1,r2,r3
"(1, 10]",0.517,0.761,0.908
"(10, 20]",0.275,0.449,0.589
"(20, 30]",0.191,0.349,0.470
"(30, 40]",0.330,0.440,0.527
"(40, 50]",0.057,0.226,0.283
"(50, 60]",0.091,0.227,0.318
"(60, 70]",0.111,0.167,0.222
"(70, 80]",0.077,0.154,0.154
"(80, 90]",0.182,0.455,0.455
"(90, 10000]",0.091,0.136,0.318
