<?xml version="1.0" encoding="UTF-8" standalone="no"?>
<!-- Created with Inkscape (http://www.inkscape.org/) -->

<svg
   xmlns:dc="http://purl.org/dc/elements/1.1/"
   xmlns:cc="http://creativecommons.org/ns#"
   xmlns:rdf="http://www.w3.org/1999/02/22-rdf-syntax-ns#"
   xmlns:svg="http://www.w3.org/2000/svg"
   xmlns="http://www.w3.org/2000/svg"
   xmlns:sodipodi="http://sodipodi.sourceforge.net/DTD/sodipodi-0.dtd"
   xmlns:inkscape="http://www.inkscape.org/namespaces/inkscape"
   width="700"
   height="150"
   id="svg2"
   version="1.1"
   inkscape:version="0.48.4 r9939"
   sodipodi:docname="jextract.svg">
  <defs
     id="defs4">
    <marker
       inkscape:stockid="Arrow1Send"
       orient="auto"
       refY="0.0"
       refX="0.0"
       id="Arrow1Send"
       style="overflow:visible;">
      <path
         id="path14171"
         d="M 0.0,0.0 L 5.0,-5.0 L -12.5,0.0 L 5.0,5.0 L 0.0,0.0 z "
         style="fill-rule:evenodd;stroke:#000000;stroke-width:1.0pt;"
         transform="scale(0.2) rotate(180) translate(6,0)" />
    </marker>
    <marker
       inkscape:stockid="Arrow1Mstart"
       orient="auto"
       refY="0.0"
       refX="0.0"
       id="Arrow1Mstart"
       style="overflow:visible">
      <path
         id="path14162"
         d="M 0.0,0.0 L 5.0,-5.0 L -12.5,0.0 L 5.0,5.0 L 0.0,0.0 z "
         style="fill-rule:evenodd;stroke:#000000;stroke-width:1.0pt"
         transform="scale(0.4) translate(10,0)" />
    </marker>
    <marker
       inkscape:stockid="Arrow2Lend"
       orient="auto"
       refY="0.0"
       refX="0.0"
       id="Arrow2Lend"
       style="overflow:visible;">
      <path
         id="path14177"
         style="fill-rule:evenodd;stroke-width:0.62500000;stroke-linejoin:round;"
         d="M 8.7185878,4.0337352 L -2.2072895,0.016013256 L 8.7185884,-4.0017078 C 6.9730900,-1.6296469 6.9831476,1.6157441 8.7185878,4.0337352 z "
         transform="scale(1.1) rotate(180) translate(1,0)" />
    </marker>
    <marker
       inkscape:stockid="Arrow2Mend"
       orient="auto"
       refY="0.0"
       refX="0.0"
       id="Arrow2Mend"
       style="overflow:visible;">
      <path
         id="path14183"
         style="fill-rule:evenodd;stroke-width:0.62500000;stroke-linejoin:round;"
         d="M 8.7185878,4.0337352 L -2.2072895,0.016013256 L 8.7185884,-4.0017078 C 6.9730900,-1.6296469 6.9831476,1.6157441 8.7185878,4.0337352 z "
         transform="scale(0.6) rotate(180) translate(0,0)" />
    </marker>
    <marker
       inkscape:stockid="Arrow1Lend"
       orient="auto"
       refY="0.0"
       refX="0.0"
       id="Arrow1Lend"
       style="overflow:visible;">
      <path
         id="path14159"
         d="M 0.0,0.0 L 5.0,-5.0 L -12.5,0.0 L 5.0,5.0 L 0.0,0.0 z "
         style="fill-rule:evenodd;stroke:#000000;stroke-width:1.0pt;"
         transform="scale(0.8) rotate(180) translate(12.5,0)" />
    </marker>
    <inkscape:perspective
       sodipodi:type="inkscape:persp3d"
       inkscape:vp_x="0 : 75 : 1"
       inkscape:vp_y="0 : 1000 : 0"
       inkscape:vp_z="700 : 75 : 1"
       inkscape:persp3d-origin="350 : 50 : 1"
       id="perspective13932" />
    <marker
       inkscape:stockid="Arrow2Mend"
       orient="auto"
       refY="0"
       refX="0"
       id="Arrow2Mend-5"
       style="overflow:visible">
      <path
         inkscape:connector-curvature="0"
         id="path14183-4"
         style="fill-rule:evenodd;stroke-width:0.625;stroke-linejoin:round"
         d="M 8.7185878,4.0337352 -2.2072895,0.01601326 8.7185884,-4.0017078 c -1.7454984,2.3720609 -1.7354408,5.6174519 -6e-7,8.035443 z"
         transform="scale(-0.6,-0.6)" />
    </marker>
  </defs>
  <sodipodi:namedview
     id="base"
     pagecolor="#ffffff"
     bordercolor="#666666"
     borderopacity="1.0"
     inkscape:pageopacity="0.0"
     inkscape:pageshadow="2"
     inkscape:zoom="1.4"
     inkscape:cx="409.78052"
     inkscape:cy="23.372786"
     inkscape:document-units="px"
     inkscape:current-layer="layer1"
     showgrid="false"
     inkscape:window-width="1858"
     inkscape:window-height="1058"
     inkscape:window-x="54"
     inkscape:window-y="-8"
     inkscape:window-maximized="1" />
  <metadata
     id="metadata7">
    <rdf:RDF>
      <cc:Work
         rdf:about="">
        <dc:format>image/svg+xml</dc:format>
        <dc:type
           rdf:resource="http://purl.org/dc/dcmitype/StillImage" />
        <dc:title />
      </cc:Work>
    </rdf:RDF>
  </metadata>
  <g
     inkscape:label="Layer 1"
     inkscape:groupmode="layer"
     id="layer1"
     transform="translate(0,-902.36218)">
    <rect
       style="fill:#f9f9f9;stroke:#000000;stroke-width:1.5;stroke-miterlimit:4;stroke-opacity:1;stroke-dasharray:none;stroke-dashoffset:0;fill-opacity:1"
       id="rect19604"
       width="471.42856"
       height="126.30602"
       x="97.14286"
       y="925.2193" />
    <rect
       style="fill:#ffffff;fill-opacity:1;stroke:#000000;stroke-width:1.49999988;stroke-opacity:1"
       id="rect13930-8-4-1-7-1"
       width="58.214287"
       height="19.559916"
       x="217.60715"
       y="1008.0522" />
    <rect
       style="fill:#ffffff;fill-opacity:1;stroke:#000000;stroke-width:1.49999988;stroke-opacity:1"
       id="rect13930-8-4-1-7"
       width="58.214287"
       height="19.559916"
       x="213.60715"
       y="998.05219" />
    <rect
       style="fill:#ffffff;stroke:#000000;stroke-width:1.5;stroke-opacity:1"
       id="rect2985"
       width="75.35714"
       height="93.571434"
       x="111.78572"
       y="950.14789" />
    <flowRoot
       xml:space="preserve"
       id="flowRoot3755"
       style="fill:black;stroke:none;stroke-opacity:1;stroke-width:1px;stroke-linejoin:miter;stroke-linecap:butt;fill-opacity:1;font-family:Sans;font-style:normal;font-weight:normal;font-size:4px;line-height:125%;letter-spacing:0px;word-spacing:0px"><flowRegion
         id="flowRegion3757"><rect
           id="rect3759"
           width="52.857143"
           height="76.428574"
           x="145.71428"
           y="31.428572"
           style="font-size:4px" /></flowRegion><flowPara
         id="flowPara3761" /></flowRoot>    <flowRoot
       xml:space="preserve"
       id="flowRoot3763"
       style="fill:black;stroke:none;stroke-opacity:1;stroke-width:1px;stroke-linejoin:miter;stroke-linecap:butt;fill-opacity:1;font-family:Sans;font-style:normal;font-weight:normal;font-size:4px;line-height:125%;letter-spacing:0px;word-spacing:0px"><flowRegion
         id="flowRegion3765"><rect
           id="rect3767"
           width="159.28572"
           height="158.57143"
           x="163.57143"
           y="-42.142857"
           style="font-size:4px" /></flowRegion><flowPara
         id="flowPara3769" /></flowRoot>    <flowRoot
       xml:space="preserve"
       id="flowRoot4064"
       style="fill:black;stroke:none;stroke-opacity:1;stroke-width:1px;stroke-linejoin:miter;stroke-linecap:butt;fill-opacity:1;font-family:Sans;font-style:normal;font-weight:normal;font-size:40px;line-height:125%;letter-spacing:0px;word-spacing:0px"><flowRegion
         id="flowRegion4066"><rect
           id="rect4068"
           width="69.285713"
           height="49.285713"
           x="421.42856"
           y="170.71428" /></flowRegion><flowPara
         id="flowPara4070" /></flowRoot>    <flowRoot
       xml:space="preserve"
       id="flowRoot13843"
       style="fill:black;stroke:none;stroke-opacity:1;stroke-width:1px;stroke-linejoin:miter;stroke-linecap:butt;fill-opacity:1;font-family:Sans;font-style:normal;font-weight:normal;font-size:8px;line-height:125%;letter-spacing:0px;word-spacing:0px"><flowRegion
         id="flowRegion13845"><rect
           id="rect13847"
           width="74.751289"
           height="90.913727"
           x="178.797"
           y="22.720779"
           style="font-size:8px" /></flowRegion><flowPara
         id="flowPara13849" /></flowRoot>    <text
       xml:space="preserve"
       style="font-size:40px;font-style:normal;font-weight:normal;line-height:125%;letter-spacing:0px;word-spacing:0px;fill:#000000;fill-opacity:1;stroke:none;font-family:Sans"
       x="115.61246"
       y="957.69971"
       id="text13851"
       sodipodi:linespacing="125%"><tspan
         sodipodi:role="line"
         id="tspan13853"
         x="115.61246"
         y="957.69971"
         style="font-size:5px;font-style:normal;font-variant:normal;font-weight:bold;font-stretch:normal;font-family:Courier New;-inkscape-font-specification:Courier New Bold"><tspan
   style="fill:#800080"
   id="tspan13918">public class</tspan> C {</tspan><tspan
         sodipodi:role="line"
         x="115.61246"
         y="963.94971"
         style="font-size:5px;font-style:normal;font-variant:normal;font-weight:bold;font-stretch:normal;font-family:Courier New;-inkscape-font-specification:Courier New Bold"
         id="tspan13895">  ...</tspan><tspan
         sodipodi:role="line"
         x="115.61246"
         y="970.19971"
         style="font-size:5px;font-style:normal;font-variant:normal;font-weight:bold;font-stretch:normal;font-family:Courier New;-inkscape-font-specification:Courier New Bold"
         id="tspan13869"><tspan
   style="fill:#800080"
   id="tspan13920">  void</tspan> methodM(A a) {</tspan><tspan
         sodipodi:role="line"
         x="115.61246"
         y="976.44971"
         style="font-size:5px;font-style:normal;font-variant:normal;font-weight:bold;font-stretch:normal;font-family:Courier New;-inkscape-font-specification:Courier New Bold"
         id="tspan13871">    Foo f = <tspan
   style="fill:#800080"
   id="tspan13924">new</tspan> Foo();</tspan><tspan
         sodipodi:role="line"
         x="115.61246"
         y="982.69971"
         style="font-size:5px;font-style:normal;font-variant:normal;font-weight:bold;font-stretch:normal;font-family:Courier New;-inkscape-font-specification:Courier New Bold"
         id="tspan13875"><tspan
   style="fill:#800080"
   id="tspan13922">    if</tspan> (x) {</tspan><tspan
         sodipodi:role="line"
         x="115.61246"
         y="988.94971"
         style="font-size:5px;font-style:normal;font-variant:normal;font-weight:bold;font-stretch:normal;font-family:Courier New;-inkscape-font-specification:Courier New Bold"
         id="tspan13877">      doA(a);</tspan><tspan
         sodipodi:role="line"
         x="115.61246"
         y="995.19971"
         style="font-size:5px;font-style:normal;font-variant:normal;font-weight:bold;font-stretch:normal;font-family:Courier New;-inkscape-font-specification:Courier New Bold"
         id="tspan13916"><tspan
   style="fill:#800080"
   id="tspan13926">      int</tspan> y = getY();</tspan><tspan
         sodipodi:role="line"
         x="115.61246"
         y="1001.4497"
         style="font-size:5px;font-style:normal;font-variant:normal;font-weight:bold;font-stretch:normal;font-family:Courier New;-inkscape-font-specification:Courier New Bold"
         id="tspan13879">      y++;</tspan><tspan
         sodipodi:role="line"
         x="115.61246"
         y="1007.6997"
         style="font-size:5px;font-style:normal;font-variant:normal;font-weight:bold;font-stretch:normal;font-family:Courier New;-inkscape-font-specification:Courier New Bold"
         id="tspan13887">      doB();</tspan><tspan
         sodipodi:role="line"
         x="115.61246"
         y="1013.9497"
         style="font-size:5px;font-style:normal;font-variant:normal;font-weight:bold;font-stretch:normal;font-family:Courier New;-inkscape-font-specification:Courier New Bold"
         id="tspan13889">    }</tspan><tspan
         sodipodi:role="line"
         x="115.61246"
         y="1020.1997"
         style="font-size:5px;font-style:normal;font-variant:normal;font-weight:bold;font-stretch:normal;font-family:Courier New;-inkscape-font-specification:Courier New Bold"
         id="tspan13891"><tspan
   style="fill:#800080"
   id="tspan13928">    super</tspan>.methodM();</tspan><tspan
         sodipodi:role="line"
         x="115.61246"
         y="1026.4497"
         style="font-size:5px;font-style:normal;font-variant:normal;font-weight:bold;font-stretch:normal;font-family:Courier New;-inkscape-font-specification:Courier New Bold"
         id="tspan13859">  }</tspan><tspan
         sodipodi:role="line"
         x="115.61246"
         y="1032.6997"
         style="font-size:5px;font-style:normal;font-variant:normal;font-weight:bold;font-stretch:normal;font-family:Courier New;-inkscape-font-specification:Courier New Bold"
         id="tspan13897">  ...</tspan><tspan
         sodipodi:role="line"
         x="115.61246"
         y="1038.9497"
         style="font-size:5px;font-style:normal;font-variant:normal;font-weight:bold;font-stretch:normal;font-family:Courier New;-inkscape-font-specification:Courier New Bold"
         id="tspan13855">}</tspan></text>
    <rect
       style="fill:none;stroke:#000000;stroke-width:1.5;stroke-opacity:1"
       id="rect13930"
       width="47.857143"
       height="19.559916"
       x="132"
       y="990.505" />
    <path
       sodipodi:type="star"
       style="fill:#000000;stroke:#000000;stroke-width:1.23882735;stroke-opacity:1"
       id="path13950"
       sodipodi:sides="3"
       sodipodi:cx="110.2329"
       sodipodi:cy="52.520279"
       sodipodi:r1="4.5771451"
       sodipodi:r2="2.2885723"
       sodipodi:arg1="0.52359878"
       sodipodi:arg2="1.5707963"
       inkscape:flatsided="true"
       inkscape:rounded="0"
       inkscape:randomized="0"
       d="m 114.19683,54.808851 -7.92785,0 3.96392,-6.865717 z"
       transform="matrix(0.80887262,0,0,0.80556079,65.59202,942.8365)"
       inkscape:transform-center-y="-0.92178715" />
    <rect
       style="fill:#000000;fill-opacity:1;stroke:#000000;stroke-width:1;stroke-opacity:1"
       id="rect13952"
       width="2.1465743"
       height="2.3991122"
       x="153.61996"
       y="987.17114" />
    <path
       sodipodi:type="star"
       style="fill:#000000;stroke:#000000;stroke-width:1.23882735;stroke-opacity:1"
       id="path13950-1"
       sodipodi:sides="3"
       sodipodi:cx="110.2329"
       sodipodi:cy="52.520279"
       sodipodi:r1="4.5771451"
       sodipodi:r2="2.2885723"
       sodipodi:arg1="0.52359878"
       sodipodi:arg2="1.5707963"
       inkscape:flatsided="true"
       inkscape:rounded="0"
       inkscape:randomized="0"
       d="m 114.19683,54.808851 -7.92785,0 3.96392,-6.865717 z"
       transform="matrix(0.80887262,0,0,-0.80556079,65.592009,1057.5105)"
       inkscape:transform-center-y="0.921836" />
    <rect
       style="fill:#000000;fill-opacity:1;stroke:#000000;stroke-width:1;stroke-opacity:1"
       id="rect13952-7"
       width="2.1465743"
       height="2.3991122"
       x="153.61996"
       y="-1013.1757"
       transform="scale(1,-1)" />
    <path
       sodipodi:type="arc"
       style="fill:none;stroke:#000000;stroke-width:1.50000000000000000;stroke-opacity:1"
       id="path13977"
       sodipodi:cx="268.21429"
       sodipodi:cy="24.642857"
       sodipodi:rx="18.214285"
       sodipodi:ry="13.928572"
       d="m 286.42858,24.642857 c 0,7.692537 -8.15481,13.928571 -18.21429,13.928571 -10.05947,0 -18.21428,-6.236034 -18.21428,-13.928571 0,-7.692538 8.15481,-13.928572 18.21428,-13.928572 10.05948,0 18.21429,6.236034 18.21429,13.928572 z"
       transform="translate(75.857143,946.36218)" />
    <path
       transform="translate(95.071421,946.57647)"
       sodipodi:type="arc"
       style="fill:none;stroke:#000000;stroke-width:1.50000000000000000;stroke-opacity:1"
       id="path13977-4"
       sodipodi:cx="268.21429"
       sodipodi:cy="24.642857"
       sodipodi:rx="18.214285"
       sodipodi:ry="13.928572"
       d="m 286.42858,24.642857 c 0,7.692537 -8.15481,13.928571 -18.21429,13.928571 -10.05947,0 -18.21428,-6.236034 -18.21428,-13.928571 0,-7.692538 8.15481,-13.928572 18.21428,-13.928572 10.05948,0 18.21429,6.236034 18.21429,13.928572 z" />
    <text
       xml:space="preserve"
       style="font-size:10px;font-style:normal;font-variant:normal;font-weight:bold;font-stretch:normal;line-height:125%;letter-spacing:0px;word-spacing:0px;fill:#000000;fill-opacity:1;stroke:none;font-family:Sans;-inkscape-font-specification:Sans Bold"
       x="333.35715"
       y="975.50507"
       id="text13999"
       sodipodi:linespacing="125%"><tspan
         sodipodi:role="line"
         id="tspan14001"
         x="333.35715"
         y="975.50507"
         style="font-size:10px;font-style:normal;font-variant:normal;font-weight:bold;font-stretch:normal;font-family:Sans;-inkscape-font-specification:Sans Bold">A</tspan></text>
    <text
       xml:space="preserve"
       style="font-size:10px;font-style:normal;font-variant:normal;font-weight:bold;font-stretch:normal;line-height:125%;letter-spacing:0px;word-spacing:0px;fill:#000000;fill-opacity:1;stroke:none;font-family:Sans;-inkscape-font-specification:Sans Bold"
       x="350.71136"
       y="974.89508"
       id="text13999-0"
       sodipodi:linespacing="125%"><tspan
         sodipodi:role="line"
         id="tspan14001-9"
         x="350.71136"
         y="974.89508"
         style="font-size:10px;font-style:normal;font-variant:normal;font-weight:bold;font-stretch:normal;font-family:Sans;-inkscape-font-specification:Sans Bold">B</tspan></text>
    <text
       xml:space="preserve"
       style="font-size:10px;font-style:normal;font-variant:normal;font-weight:bold;font-stretch:normal;line-height:125%;letter-spacing:0px;word-spacing:0px;fill:#000000;fill-opacity:1;stroke:none;font-family:Sans;-inkscape-font-specification:Sans Bold"
       x="367.85422"
       y="975.2522"
       id="text13999-4"
       sodipodi:linespacing="125%"><tspan
         sodipodi:role="line"
         id="tspan14001-8"
         x="367.85422"
         y="975.2522"
         style="font-size:10px;font-style:normal;font-variant:normal;font-weight:bold;font-stretch:normal;font-family:Sans;-inkscape-font-specification:Sans Bold">C</tspan></text>
    <rect
       style="fill:#ffffff;fill-opacity:1;stroke:#000000;stroke-width:1.49999988;stroke-opacity:1"
       id="rect13930-8-4-1"
       width="58.214287"
       height="19.559916"
       x="209.60715"
       y="988.05225" />
    <rect
       style="fill:#ffffff;fill-opacity:1;stroke:#000000;stroke-width:1.49999988;stroke-opacity:1"
       id="rect13930-8-4"
       width="58.214287"
       height="19.559916"
       x="205.60715"
       y="978.05225" />
    <text
       xml:space="preserve"
       style="font-size:40px;font-style:normal;font-weight:normal;line-height:125%;letter-spacing:0px;word-spacing:0px;fill:#000000;fill-opacity:1;stroke:none;font-family:Sans"
       x="212.46428"
       y="990.97504"
       id="text14085"
       sodipodi:linespacing="125%"><tspan
         sodipodi:role="line"
         id="tspan14087"
         x="212.46428"
         y="990.97504"
         style="font-size:10px">candidate</tspan></text>
    <path
       style="fill:none;stroke:#000000;stroke-width:1.5;stroke-linecap:butt;stroke-linejoin:miter;stroke-miterlimit:4;stroke-opacity:1;stroke-dasharray:none;marker-end:url(#Arrow2Mend-5)"
       d="m 179.85714,996.5028 23.02109,-4.06996"
       id="path14150"
       inkscape:connector-type="polyline"
       inkscape:connector-curvature="3" />
    <path
       id="path15166"
       d="m 365.63022,1043.7147 v 2.0684 h -24.82117 v -2.0684 c 0,-1.1397 0.92873,-2.0685 2.06843,-2.0685 h 4.16376 c 0.10962,-2.5814 1.78505,-4.7367 4.10997,-5.562 v -24.2503 c -1.09007,-0.6888 -1.82022,-1.8967 -1.82022,-3.2826 h 1.82022 4.13686 1.82022 c 0,1.3859 -0.73016,2.5938 -1.82022,3.2826 v 24.2503 c 2.32491,0.8253 4.00034,2.9806 4.10997,5.562 h 4.16375 c 1.13971,0 2.06843,0.9288 2.06843,2.0685 z m 14.47902,-18.616 c -1.51616,4.2693 -5.55374,7.3492 -10.34216,7.3492 -4.78841,0 -8.82599,-3.0819 -10.34215,-7.3492 h 2.38697 l 6.98716,-18.5186 c 0.30199,-0.8067 1.63199,-0.8067 1.93605,0 l 6.98716,18.5186 h 2.38697 z m -4.59813,0 -5.74403,-15.2236 -5.74403,15.2236 h 11.48806 z m -38.83892,-20.6636 c 0.937,0 1.70025,-0.6267 1.96501,-1.4768 0.68465,-0.2606 1.38585,-0.6123 2.10566,-0.9763 1.58235,-0.7984 3.37568,-1.7044 5.23727,-1.7044 1.78712,0 2.90408,0.8253 3.54322,1.5285 -0.0248,0.1779 -0.0538,0.3558 -0.0538,0.5399 0,2.0705 1.67957,3.7501 3.75007,3.7501 2.0705,0 3.75006,-1.6796 3.75006,-3.7501 0,-0.1841 -0.029,-0.3599 -0.0538,-0.5378 0.63708,-0.7012 1.75403,-1.5306 3.54322,-1.5306 1.86159,0 3.65492,0.906 5.2352,1.7044 0.72188,0.364 1.42308,0.7157 2.10773,0.9763 0.26476,0.8501 1.02801,1.4768 1.96501,1.4768 1.15419,0 2.08912,-0.9349 2.08912,-2.0891 0,-1.1542 -0.93493,-2.0891 -2.08912,-2.0891 -0.59571,0 -1.12729,0.2565 -1.50788,0.6578 -0.51091,-0.2152 -1.06318,-0.4903 -1.632,-0.7778 -1.78712,-0.90387 -3.81211,-1.92775 -6.16806,-1.92775 -2.06015,0 -3.49564,0.78394 -4.46987,1.62786 -0.43644,-0.48195 -0.99492,-0.84185 -1.62993,-1.04663 0.77153,-0.41368 1.31346,-1.20176 1.31346,-2.13462 0,-1.35482 -2.45316,-4.51745 -2.45316,-4.51745 0,0 -2.45316,3.16263 -2.45316,4.51745 0,0.93493 0.54193,1.72094 1.31345,2.13462 -0.63501,0.20271 -1.19348,0.56468 -1.62992,1.04663 -0.97423,-0.84392 -2.40972,-1.62786 -4.46988,-1.62786 -2.35594,0 -4.383,1.02388 -6.17013,1.92775 -0.56882,0.2875 -1.11902,0.5626 -1.62992,0.7757 -0.38059,-0.3992 -0.91218,-0.6557 -1.50789,-0.6557 -1.15418,0 -2.08911,0.9349 -2.08911,2.0891 0,1.1542 0.93493,2.0891 2.08911,2.0891 z m 0,28.0128 c -4.78841,0 -8.82599,-3.0819 -10.34215,-7.3492 h 2.38697 l 6.98716,-18.5186 c 0.30199,-0.8067 1.63199,-0.8067 1.93605,0 l 6.98716,18.5186 h 2.38697 c -1.51616,4.2673 -5.55374,7.3492 -10.34216,7.3492 z m 5.74403,-7.3492 -5.74403,-15.2236 -5.74403,15.2236 h 11.48806 z"
       inkscape:connector-curvature="0" />
    <rect
       style="fill:#ffffff;fill-opacity:1;stroke:#000000;stroke-width:1.49999988;stroke-opacity:1"
       id="rect13930-8-4-1-7-1-1"
       width="58.214287"
       height="19.559916"
       x="464.75"
       y="1025.8966" />
    <rect
       style="fill:#ffffff;fill-opacity:1;stroke:#000000;stroke-width:1.49999988;stroke-opacity:1"
       id="rect13930-8-4-1-7-5"
       width="58.214287"
       height="19.559916"
       x="464.75"
       y="994.46802" />
    <rect
       style="fill:#ffffff;fill-opacity:1;stroke:#000000;stroke-width:1.49999988;stroke-opacity:1"
       id="rect13930-8-4-1-2"
       width="58.214287"
       height="19.559916"
       x="464.75"
       y="976.46802" />
    <rect
       style="fill:#ffffff;fill-opacity:1;stroke:#000000;stroke-width:1.49999988;stroke-opacity:1"
       id="rect13930-8-4-7"
       width="58.214287"
       height="19.559916"
       x="464.75"
       y="958.46802" />
    <text
       xml:space="preserve"
       style="font-size:40px;font-style:normal;font-weight:bold;line-height:125%;letter-spacing:0px;word-spacing:0px;fill:#000000;fill-opacity:1;stroke:none;font-family:Sans;-inkscape-font-specification:Sans Bold"
       x="455.88687"
       y="971.52551"
       id="text14085-6-4"
       sodipodi:linespacing="125%"><tspan
         sodipodi:role="line"
         id="tspan14087-1-2"
         x="455.88687"
         y="971.52551"
         style="font-size:10px;font-weight:bold;-inkscape-font-specification:Sans Bold">1</tspan></text>
    <text
       xml:space="preserve"
       style="font-size:40px;font-style:normal;font-weight:bold;line-height:125%;letter-spacing:0px;word-spacing:0px;fill:#000000;fill-opacity:1;stroke:none;font-family:Sans;-inkscape-font-specification:Sans Bold"
       x="455.85098"
       y="991.31311"
       id="text14085-6-4-3"
       sodipodi:linespacing="125%"><tspan
         sodipodi:role="line"
         id="tspan14087-1-2-2"
         x="455.85098"
         y="991.31311"
         style="font-size:10px;font-weight:bold;-inkscape-font-specification:Sans Bold">2</tspan></text>
    <text
       xml:space="preserve"
       style="font-size:40px;font-style:normal;font-weight:bold;line-height:125%;letter-spacing:0px;word-spacing:0px;fill:#000000;fill-opacity:1;stroke:none;font-family:Sans;-inkscape-font-specification:Sans Bold"
       x="455.6319"
       y="1008.6702"
       id="text14085-6-4-3-2"
       sodipodi:linespacing="125%"><tspan
         sodipodi:role="line"
         x="455.6319"
         y="1008.6702"
         style="font-size:10px;font-weight:bold;-inkscape-font-specification:Sans Bold"
         id="tspan15428">3</tspan></text>
    <text
       xml:space="preserve"
       style="font-size:40px;font-style:normal;font-weight:bold;line-height:125%;letter-spacing:0px;word-spacing:0px;fill:#000000;fill-opacity:1;stroke:none;font-family:Sans;-inkscape-font-specification:Sans Bold"
       x="455.88895"
       y="1039.6804"
       id="text14085-6-4-3-2-6"
       sodipodi:linespacing="125%"><tspan
         sodipodi:role="line"
         x="455.88895"
         y="1039.6804"
         style="font-size:10px;font-weight:bold;-inkscape-font-specification:Sans Bold"
         id="tspan15428-8">4</tspan></text>
    <path
       style="fill:none;stroke:#000000;stroke-width:2;stroke-linecap:butt;stroke-linejoin:miter;stroke-miterlimit:4;stroke-opacity:1;stroke-dasharray:6, 2;stroke-dashoffset:0"
       d="m 452.53674,1020.4336 77.56938,0"
       id="path15453"
       inkscape:connector-curvature="0" />
    <text
       xml:space="preserve"
       style="font-size:14px;font-style:normal;font-weight:normal;line-height:125%;letter-spacing:0px;word-spacing:0px;fill:#000000;fill-opacity:1;stroke:none;font-family:Sans"
       x="110.85714"
       y="941.41589"
       id="text15455"
       sodipodi:linespacing="125%"><tspan
         sodipodi:role="line"
         id="tspan15457"
         x="110.85714"
         y="941.41589">Generation of Candidates</tspan></text>
    <text
       xml:space="preserve"
       style="font-size:14px;font-style:normal;font-weight:normal;line-height:125%;letter-spacing:0px;word-spacing:0px;fill:#000000;fill-opacity:1;stroke:none;font-family:Sans"
       x="301.63965"
       y="941.41589"
       id="text15455-5"
       sodipodi:linespacing="125%"><tspan
         sodipodi:role="line"
         id="tspan15457-7"
         x="301.63965"
         y="941.41589">Scoring Function</tspan></text>
    <text
       xml:space="preserve"
       style="font-size:14px;font-style:normal;font-weight:normal;line-height:125%;letter-spacing:0px;word-spacing:0px;fill:#000000;fill-opacity:1;stroke:none;font-family:Sans"
       x="428.51187"
       y="941.41589"
       id="text15455-5-6"
       sodipodi:linespacing="125%"><tspan
         sodipodi:role="line"
         id="tspan15457-7-1"
         x="428.51187"
         y="941.41589">Ranking and Filtering</tspan></text>
    <text
       xml:space="preserve"
       style="font-size:14px;font-style:normal;font-weight:normal;text-align:center;line-height:125%;letter-spacing:0px;word-spacing:0px;text-anchor:middle;fill:#000000;fill-opacity:1;stroke:none;font-family:Sans"
       x="638.21741"
       y="954.12799"
       id="text15455-5-6-8"
       sodipodi:linespacing="125%"><tspan
         sodipodi:role="line"
         x="638.21741"
         y="954.12799"
         id="tspan15522">Extract Method</tspan><tspan
         sodipodi:role="line"
         x="638.21741"
         y="971.62799"
         id="tspan15526">Recommendations</tspan></text>
    <g
       id="g15962"
       transform="translate(17.856638,971.9336)">
      <g
         id="text" />
      <g
         id="_x31_" />
      <g
         id="_x32_" />
      <g
         id="_x33__1_" />
      <g
         id="_x34_" />
      <g
         id="_x35_" />
      <g
         id="_x36_" />
      <g
         id="_x37_" />
      <g
         id="_x38_" />
      <g
         id="_x39_" />
      <g
         id="_x31_0" />
      <g
         id="_x31_1" />
      <g
         id="_x31_2" />
      <g
         id="_x31_3" />
      <g
         id="_x31_4" />
      <g
         id="_x31_5" />
      <g
         id="_x31_6" />
      <g
         id="_x31_7" />
      <g
         id="_x31_8" />
      <g
         id="_x31_9" />
      <g
         id="_x32_0" />
      <g
         id="_x32_1" />
      <g
         id="_x32_2" />
      <g
         id="_x32_3" />
      <g
         id="_x32_4" />
      <g
         id="_x32_5" />
      <g
         id="_x32_6" />
      <g
         id="_x32_7" />
      <g
         id="_x32_8" />
      <g
         id="_x32_9" />
      <g
         id="_x33_0" />
      <g
         id="_x33_1" />
      <g
         id="_x33_2" />
      <g
         id="_x33_3" />
      <g
         id="_x33_4" />
      <g
         id="_x33_5" />
      <g
         id="_x33_6" />
      <g
         id="_x33_7" />
      <g
         id="_x33_8" />
      <g
         id="_x33_9" />
      <g
         id="_x34_0" />
      <g
         id="_x34_1" />
      <g
         id="_x34_2" />
      <g
         id="_x34_3" />
      <g
         id="_x34_4" />
      <g
         id="_x34_5" />
      <g
         id="_x34_6" />
      <g
         id="_x34_7" />
      <g
         id="_x34_8" />
      <g
         id="_x34_9" />
      <g
         id="_x35_0" />
      <g
         id="_x35_1" />
      <g
         id="_x35_2" />
      <g
         id="_x35_3" />
      <g
         id="_x35_4" />
      <g
         id="_x35_5" />
      <g
         id="_x35_6" />
      <g
         id="_x35_7" />
      <g
         id="_x35_8" />
      <g
         id="_x35_9" />
      <g
         id="_x36_0" />
      <g
         id="_x36_1" />
      <g
         id="_x36_2" />
      <g
         id="_x36_3" />
      <g
         id="_x36_4" />
      <g
         id="_x36_5" />
      <g
         id="_x36_6" />
      <g
         id="_x36_7" />
      <g
         id="_x36_8" />
      <g
         id="_x36_9" />
      <g
         id="_x37_0" />
      <g
         id="_x37_1" />
      <g
         id="_x37_2" />
      <g
         id="_x37_3" />
      <g
         id="_x37_4" />
      <g
         id="_x37_5" />
      <g
         id="_x37_6" />
      <g
         id="_x37_7" />
      <g
         id="_x37_8" />
      <g
         id="_x37_9" />
      <g
         id="_x38_0" />
      <g
         id="_x38_1" />
      <g
         id="_x38_2" />
      <g
         id="_x38_3" />
      <g
         id="_x38_4" />
      <g
         id="_x38_5" />
      <g
         id="_x38_6" />
      <g
         id="_x38_7">
        <g
           id="g15835">
          <path
             id="path15837"
             d="m 12.03,21.967 c -1.318,0 -1.318,2.047 0,2.047 5.249,0 10.497,0 15.746,0 1.319,0 1.319,-2.047 0,-2.047 -5.249,0 -10.497,0 -15.746,0 z"
             inkscape:connector-curvature="0" />
          <path
             id="path15839"
             d="m 27.776,26.808 c -5.249,0 -10.497,0 -15.746,0 -1.318,0 -1.318,2.045 0,2.045 5.249,0 10.497,0 15.746,0 1.32,0 1.32,-2.045 0,-2.045 z"
             inkscape:connector-curvature="0" />
          <path
             id="path15841"
             d="m 27.776,31.291 c -5.249,0 -10.497,0 -15.746,0 -1.318,0 -1.318,2.045 0,2.045 5.249,0 10.497,0 15.746,0 1.32,0 1.32,-2.045 0,-2.045 z"
             inkscape:connector-curvature="0" />
          <path
             id="path15843"
             d="m 27.776,36.131 c -5.249,0 -10.497,0 -15.746,0 -1.318,0 -1.318,2.044 0,2.044 5.249,0 10.497,0 15.746,0 1.32,0 1.32,-2.044 0,-2.044 z"
             inkscape:connector-curvature="0" />
          <path
             id="path15845"
             d="m 27.474,40.698 c -5.25,0 -10.5,0 -15.748,0 -1.317,0 -1.317,2.045 0,2.045 5.248,0 10.498,0 15.748,0 1.317,0 1.317,-2.045 0,-2.045 z"
             inkscape:connector-curvature="0" />
          <path
             id="path15847"
             d="M 5.203,11.496 V 49.675 H 34.604 V 16.793 L 29.141,11.496 H 5.203 z M 32.062,47.133 H 7.746 V 14.038 h 20.086 v 4.033 h 4.229 v 29.062 z"
             inkscape:connector-curvature="0" />
          <polygon
             id="polygon15849"
             points="35.915,41.282 35.915,43.824 39.574,43.824 39.574,10.942 34.111,5.646 10.173,5.646 10.173,10.065 12.716,10.065 12.716,8.187 32.803,8.187 32.803,12.22 37.032,12.22 37.032,41.282 " />
          <polygon
             id="polygon15851"
             points="42.255,35.962 41.139,35.962 41.139,38.504 44.798,38.504 44.798,5.622 39.334,0.325 15.396,0.325 15.396,4.745 17.938,4.745 17.938,2.867 38.025,2.867 38.025,6.9 42.255,6.9 " />
        </g>
      </g>
      <g
         id="_x38_8" />
      <g
         id="_x38_9" />
      <g
         id="_x39_0" />
      <g
         id="_x39_1" />
      <g
         id="_x39_2" />
      <g
         id="_x39_3" />
      <g
         id="_x39_4" />
      <g
         id="_x39_5" />
      <g
         id="_x39_6" />
      <g
         id="_x39_7" />
      <g
         id="_x39_8" />
      <g
         id="_x39_9" />
      <g
         id="_x31_00" />
      <g
         id="_x31_01" />
      <g
         id="_x31_02" />
      <g
         id="_x31_03" />
      <g
         id="_x31_04" />
      <g
         id="_x31_05" />
      <g
         id="_x31_06" />
      <g
         id="_x31_07" />
      <g
         id="_x31_08" />
      <g
         id="_x31_09" />
      <g
         id="_x31_10" />
      <g
         id="_x31_11" />
      <g
         id="_x31_12" />
      <g
         id="_x31_13" />
      <g
         id="_x31_14" />
      <g
         id="_x31_15" />
      <g
         id="_x31_16" />
      <g
         id="_x31_17" />
      <g
         id="_x31_18" />
      <g
         id="_x31_19" />
      <g
         id="_x31_20" />
      <g
         id="_x31_21" />
      <g
         id="_x31_22" />
      <g
         id="_x31_23" />
      <g
         id="_x31_24" />
      <g
         id="_x31_25" />
      <g
         id="_x31_26" />
      <g
         id="_x31_27" />
      <g
         id="_x31_28" />
      <g
         id="_x31_29" />
      <g
         id="_x31_30" />
      <g
         id="_x31_31" />
      <g
         id="_x31_32" />
      <g
         id="_x31_33" />
      <g
         id="_x31_34" />
      <g
         id="_x31_35" />
      <g
         id="_x31_36" />
      <g
         id="_x31_37" />
      <g
         id="_x31_38" />
      <g
         id="_x31_39" />
      <g
         id="_x31_40" />
      <g
         id="_x31_41" />
      <g
         id="_x31_42" />
      <g
         id="_x31_43" />
      <g
         id="_x31_44" />
      <g
         id="_x31_45" />
      <g
         id="_x31_46" />
      <g
         id="_x31_47" />
      <g
         id="_x31_48" />
      <g
         id="_x31_49" />
      <g
         id="_x31_50" />
      <g
         id="_x31_51" />
      <g
         id="_x31_52" />
      <g
         id="_x31_53" />
      <g
         id="_x31_54" />
      <g
         id="_x31_55" />
      <g
         id="_x31_56" />
      <g
         id="_x31_57" />
      <g
         id="_x31_58" />
      <g
         id="_x31_59" />
      <g
         id="_x31_60" />
      <g
         id="_x31_61" />
      <g
         id="_x31_62" />
      <g
         id="_x31_63" />
      <g
         id="_x31_64" />
      <g
         id="_x31_65" />
      <g
         id="_x31_66" />
      <g
         id="_x31_67" />
      <g
         id="_x31_68" />
      <g
         id="_x31_69" />
      <g
         id="_x31_70" />
      <g
         id="_x31_71" />
      <g
         id="_x31_72" />
      <g
         id="_x31_73" />
      <g
         id="_x31_74" />
      <g
         id="_x31_75" />
      <g
         id="_x31_76" />
      <g
         id="_x31_77" />
      <g
         id="_x31_78" />
      <g
         id="_x31_79" />
      <g
         id="_x31_80" />
      <g
         id="_x31_81" />
      <g
         id="_x31_82" />
      <g
         id="_x31_83" />
      <g
         id="_x31_84" />
      <g
         id="_x31_85" />
      <g
         id="_x31_86" />
      <g
         id="_x31_87" />
      <g
         id="_x31_88" />
      <g
         id="_x31_89" />
      <g
         id="_x31_90" />
    </g>
    <text
       xml:space="preserve"
       style="font-size:14px;font-style:normal;font-weight:normal;line-height:125%;letter-spacing:0px;word-spacing:0px;fill:#000000;fill-opacity:1;stroke:none;font-family:Sans"
       x="5.2239122"
       y="959.80145"
       id="text15455-2"
       sodipodi:linespacing="125%"><tspan
         sodipodi:role="line"
         id="tspan15457-79"
         x="5.2239122"
         y="959.80145">Source Code</tspan></text>
    <g
       id="text-6"
       transform="translate(50.713786,1068.4336)" />
    <g
       id="_x31_-1"
       transform="translate(50.713786,1068.4336)" />
    <g
       id="_x32_-3"
       transform="translate(50.713786,1068.4336)" />
    <g
       id="_x33__1_-8"
       transform="translate(50.713786,1068.4336)" />
    <g
       id="_x34_-9"
       transform="translate(50.713786,1068.4336)" />
    <g
       id="_x35_-3"
       transform="translate(50.713786,1068.4336)" />
    <g
       id="_x36_-4"
       transform="translate(50.713786,1068.4336)" />
    <g
       id="_x37_-4"
       transform="translate(50.713786,1068.4336)" />
    <g
       id="_x38_-6"
       transform="translate(50.713786,1068.4336)" />
    <g
       id="_x39_-0"
       transform="translate(50.713786,1068.4336)" />
    <g
       id="_x31_0-6"
       transform="translate(50.713786,1068.4336)" />
    <g
       id="_x31_1-6"
       transform="translate(50.713786,1068.4336)" />
    <g
       id="_x31_2-1"
       transform="translate(50.713786,1068.4336)" />
    <g
       id="_x31_3-8"
       transform="translate(50.713786,1068.4336)" />
    <g
       id="_x31_4-4"
       transform="translate(50.713786,1068.4336)" />
    <g
       id="_x31_5-9"
       transform="translate(50.713786,1068.4336)" />
    <g
       id="_x31_6-6"
       transform="translate(50.713786,1068.4336)" />
    <g
       id="_x31_7-3"
       transform="translate(50.713786,1068.4336)" />
    <g
       id="_x31_8-7"
       transform="translate(50.713786,1068.4336)" />
    <g
       id="_x31_9-8"
       transform="translate(50.713786,1068.4336)" />
    <g
       id="_x32_0-8"
       transform="translate(50.713786,1068.4336)" />
    <g
       id="_x32_1-2"
       transform="translate(50.713786,1068.4336)" />
    <g
       id="_x32_2-9"
       transform="translate(50.713786,1068.4336)" />
    <g
       id="_x32_3-1"
       transform="translate(50.713786,1068.4336)" />
    <g
       id="_x32_4-3"
       transform="translate(50.713786,1068.4336)" />
    <g
       id="_x32_5-5"
       transform="translate(50.713786,1068.4336)" />
    <g
       id="_x32_6-9"
       transform="translate(50.713786,1068.4336)" />
    <g
       id="_x32_7-8"
       transform="translate(50.713786,1068.4336)" />
    <g
       id="_x32_8-4"
       transform="translate(50.713786,1068.4336)" />
    <g
       id="_x32_9-0"
       transform="translate(50.713786,1068.4336)" />
    <g
       id="_x33_0-7"
       transform="translate(50.713786,1068.4336)" />
    <g
       id="_x33_1-6"
       transform="translate(50.713786,1068.4336)" />
    <g
       id="_x33_2-3"
       transform="translate(50.713786,1068.4336)" />
    <g
       id="_x33_3-6"
       transform="translate(50.713786,1068.4336)" />
    <g
       id="_x33_4-1"
       transform="translate(50.713786,1068.4336)" />
    <g
       id="_x33_5-5"
       transform="translate(50.713786,1068.4336)" />
    <g
       id="_x33_6-4"
       transform="translate(50.713786,1068.4336)" />
    <g
       id="_x33_7-2"
       transform="translate(50.713786,1068.4336)" />
    <g
       id="_x33_8-0"
       transform="translate(50.713786,1068.4336)" />
    <g
       id="_x33_9-9"
       transform="translate(50.713786,1068.4336)" />
    <g
       id="_x34_0-7"
       transform="translate(50.713786,1068.4336)" />
    <g
       id="_x34_1-3"
       transform="translate(50.713786,1068.4336)" />
    <g
       id="_x34_2-7"
       transform="translate(50.713786,1068.4336)" />
    <g
       id="_x34_3-2"
       transform="translate(50.713786,1068.4336)" />
    <g
       id="_x34_4-6"
       transform="translate(50.713786,1068.4336)" />
    <g
       id="_x34_5-0"
       transform="translate(50.713786,1068.4336)" />
    <g
       id="_x34_6-1"
       transform="translate(50.713786,1068.4336)" />
    <g
       id="_x34_7-6"
       transform="translate(50.713786,1068.4336)" />
    <g
       id="_x34_8-5"
       transform="translate(50.713786,1068.4336)" />
    <g
       id="_x34_9-7"
       transform="translate(50.713786,1068.4336)" />
    <g
       id="_x35_0-5"
       transform="translate(50.713786,1068.4336)" />
    <g
       id="_x35_1-4"
       transform="translate(50.713786,1068.4336)" />
    <g
       id="_x35_2-1"
       transform="translate(50.713786,1068.4336)" />
    <g
       id="_x35_3-2"
       transform="translate(50.713786,1068.4336)" />
    <g
       id="_x35_4-0"
       transform="translate(50.713786,1068.4336)" />
    <g
       id="_x35_5-0"
       transform="translate(50.713786,1068.4336)" />
    <g
       id="_x35_6-1"
       transform="translate(50.713786,1068.4336)" />
    <g
       id="_x35_7-4"
       transform="translate(50.713786,1068.4336)" />
    <g
       id="_x35_8-6"
       transform="translate(50.713786,1068.4336)" />
    <g
       id="_x35_9-0"
       transform="translate(50.713786,1068.4336)" />
    <g
       id="_x36_0-7"
       transform="translate(50.713786,1068.4336)" />
    <g
       id="_x36_1-1"
       transform="translate(50.713786,1068.4336)" />
    <g
       id="_x36_2-7"
       transform="translate(50.713786,1068.4336)" />
    <g
       id="_x36_3-7"
       transform="translate(50.713786,1068.4336)" />
    <g
       id="_x36_4-7"
       transform="translate(50.713786,1068.4336)" />
    <g
       id="_x36_5-7"
       transform="translate(50.713786,1068.4336)" />
    <g
       id="_x36_6-3"
       transform="translate(50.713786,1068.4336)" />
    <g
       id="_x36_7-3"
       transform="translate(50.713786,1068.4336)" />
    <g
       id="_x36_8-5"
       transform="translate(50.713786,1068.4336)" />
    <g
       id="_x36_9-9"
       transform="translate(50.713786,1068.4336)" />
    <g
       id="_x37_0-9"
       transform="translate(50.713786,1068.4336)" />
    <g
       id="_x37_1-8"
       transform="translate(50.713786,1068.4336)" />
    <g
       id="_x37_2-1"
       transform="translate(50.713786,1068.4336)" />
    <g
       id="_x37_3-8"
       transform="translate(50.713786,1068.4336)" />
    <g
       id="_x37_4-2"
       transform="translate(50.713786,1068.4336)" />
    <g
       id="_x37_5-6"
       transform="translate(50.713786,1068.4336)" />
    <g
       id="_x37_6-6"
       transform="translate(50.713786,1068.4336)" />
    <g
       id="_x37_7-0"
       transform="translate(50.713786,1068.4336)" />
    <g
       id="_x37_8-3"
       transform="translate(50.713786,1068.4336)" />
    <g
       id="_x37_9-8"
       transform="translate(50.713786,1068.4336)" />
    <g
       id="_x38_0-0"
       transform="translate(50.713786,1068.4336)" />
    <g
       id="_x38_1-1"
       transform="translate(50.713786,1068.4336)" />
    <g
       id="_x38_2-2"
       transform="translate(50.713786,1068.4336)" />
    <g
       id="_x38_3-5"
       transform="translate(50.713786,1068.4336)" />
    <g
       id="_x38_4-0"
       transform="translate(50.713786,1068.4336)" />
    <g
       id="_x38_5-9"
       transform="translate(50.713786,1068.4336)" />
    <g
       id="_x38_6-4"
       transform="translate(50.713786,1068.4336)" />
    <g
       id="_x38_8-0"
       transform="translate(50.713786,1068.4336)" />
    <g
       id="_x38_9-6"
       transform="translate(50.713786,1068.4336)" />
    <g
       id="_x39_0-1"
       transform="translate(50.713786,1068.4336)" />
    <g
       id="_x39_1-8"
       transform="translate(50.713786,1068.4336)" />
    <g
       id="_x39_2-9"
       transform="translate(50.713786,1068.4336)" />
    <g
       id="_x39_3-8"
       transform="translate(50.713786,1068.4336)" />
    <g
       id="_x39_4-4"
       transform="translate(50.713786,1068.4336)" />
    <g
       id="_x39_5-1"
       transform="translate(50.713786,1068.4336)" />
    <g
       id="_x39_6-4"
       transform="translate(50.713786,1068.4336)" />
    <g
       id="_x39_7-3"
       transform="translate(50.713786,1068.4336)" />
    <g
       id="_x39_8-9"
       transform="translate(50.713786,1068.4336)" />
    <g
       id="_x39_9-8"
       transform="translate(50.713786,1068.4336)" />
    <g
       id="_x31_00-8"
       transform="translate(50.713786,1068.4336)" />
    <g
       id="_x31_01-0"
       transform="translate(50.713786,1068.4336)" />
    <g
       id="_x31_02-8"
       transform="translate(50.713786,1068.4336)" />
    <g
       id="_x31_03-7"
       transform="translate(50.713786,1068.4336)" />
    <g
       id="_x31_04-7"
       transform="translate(50.713786,1068.4336)" />
    <g
       id="_x31_05-8"
       transform="translate(50.713786,1068.4336)" />
    <g
       id="_x31_06-3"
       transform="translate(50.713786,1068.4336)" />
    <g
       id="_x31_07-8"
       transform="translate(50.713786,1068.4336)" />
    <g
       id="_x31_08-3"
       transform="translate(50.713786,1068.4336)" />
    <g
       id="_x31_09-7"
       transform="translate(50.713786,1068.4336)" />
    <g
       id="_x31_10-1"
       transform="translate(50.713786,1068.4336)" />
    <g
       id="_x31_11-0"
       transform="translate(50.713786,1068.4336)" />
    <g
       id="_x31_12-7"
       transform="translate(50.713786,1068.4336)" />
    <g
       id="_x31_13-3"
       transform="translate(50.713786,1068.4336)" />
    <g
       id="_x31_14-4"
       transform="translate(50.713786,1068.4336)" />
    <g
       id="_x31_15-9"
       transform="translate(50.713786,1068.4336)" />
    <g
       id="_x31_16-6"
       transform="translate(50.713786,1068.4336)" />
    <g
       id="_x31_17-5"
       transform="translate(50.713786,1068.4336)" />
    <g
       id="_x31_18-1"
       transform="translate(50.713786,1068.4336)" />
    <g
       id="_x31_19-0"
       transform="translate(50.713786,1068.4336)" />
    <g
       id="_x31_20-9"
       transform="translate(50.713786,1068.4336)" />
    <g
       id="_x31_21-9"
       transform="translate(50.713786,1068.4336)" />
    <g
       id="_x31_22-6"
       transform="translate(50.713786,1068.4336)" />
    <g
       id="_x31_23-8"
       transform="translate(50.713786,1068.4336)" />
    <g
       id="_x31_24-3"
       transform="translate(50.713786,1068.4336)" />
    <g
       id="_x31_25-4"
       transform="translate(50.713786,1068.4336)" />
    <g
       id="_x31_26-8"
       transform="translate(50.713786,1068.4336)" />
    <g
       id="_x31_27-4"
       transform="translate(50.713786,1068.4336)" />
    <g
       id="_x31_28-9"
       transform="translate(50.713786,1068.4336)" />
    <g
       id="_x31_29-9"
       transform="translate(50.713786,1068.4336)" />
    <g
       id="_x31_30-2"
       transform="translate(50.713786,1068.4336)" />
    <g
       id="_x31_31-5"
       transform="translate(50.713786,1068.4336)" />
    <g
       id="_x31_32-5"
       transform="translate(50.713786,1068.4336)" />
    <g
       id="_x31_33-3"
       transform="translate(50.713786,1068.4336)" />
    <g
       id="_x31_34-3"
       transform="translate(50.713786,1068.4336)" />
    <g
       id="_x31_35-3"
       transform="translate(50.713786,1068.4336)" />
    <g
       id="_x31_36-7"
       transform="translate(50.713786,1068.4336)" />
    <g
       id="_x31_37-4"
       transform="translate(50.713786,1068.4336)" />
    <g
       id="_x31_38-3"
       transform="translate(50.713786,1068.4336)" />
    <g
       id="_x31_39-8"
       transform="translate(50.713786,1068.4336)" />
    <g
       id="_x31_40-0"
       transform="translate(50.713786,1068.4336)" />
    <g
       id="_x31_41-8"
       transform="translate(50.713786,1068.4336)" />
    <g
       id="_x31_42-8"
       transform="translate(50.713786,1068.4336)" />
    <g
       id="_x31_43-0"
       transform="translate(50.713786,1068.4336)" />
    <g
       id="_x31_44-6"
       transform="translate(50.713786,1068.4336)" />
    <g
       id="_x31_45-8"
       transform="translate(50.713786,1068.4336)" />
    <g
       id="_x31_46-1"
       transform="translate(50.713786,1068.4336)" />
    <g
       id="_x31_47-9"
       transform="translate(50.713786,1068.4336)" />
    <g
       id="_x31_48-8"
       transform="translate(50.713786,1068.4336)" />
    <g
       id="_x31_49-9"
       transform="translate(50.713786,1068.4336)" />
    <g
       id="_x31_50-7"
       transform="translate(50.713786,1068.4336)" />
    <g
       id="_x31_51-2"
       transform="translate(50.713786,1068.4336)" />
    <g
       id="_x31_52-2"
       transform="translate(50.713786,1068.4336)" />
    <g
       id="_x31_53-8"
       transform="translate(50.713786,1068.4336)" />
    <g
       id="_x31_54-2"
       transform="translate(50.713786,1068.4336)" />
    <g
       id="_x31_55-8"
       transform="translate(50.713786,1068.4336)" />
    <g
       id="_x31_56-9"
       transform="translate(50.713786,1068.4336)" />
    <g
       id="_x31_57-0"
       transform="translate(50.713786,1068.4336)" />
    <g
       id="_x31_58-7"
       transform="translate(50.713786,1068.4336)" />
    <g
       id="_x31_59-8"
       transform="translate(50.713786,1068.4336)" />
    <g
       id="_x31_60-1"
       transform="translate(50.713786,1068.4336)" />
    <g
       id="_x31_61-5"
       transform="translate(50.713786,1068.4336)" />
    <g
       id="_x31_62-8"
       transform="translate(50.713786,1068.4336)" />
    <g
       id="_x31_63-6"
       transform="translate(50.713786,1068.4336)" />
    <g
       id="_x31_64-1"
       transform="translate(50.713786,1068.4336)" />
    <g
       id="_x31_65-2"
       transform="translate(50.713786,1068.4336)" />
    <g
       id="_x31_66-4"
       transform="translate(50.713786,1068.4336)" />
    <g
       id="_x31_67-2"
       transform="translate(50.713786,1068.4336)" />
    <g
       id="_x31_68-5"
       transform="translate(50.713786,1068.4336)" />
    <g
       id="_x31_69-8"
       transform="translate(50.713786,1068.4336)" />
    <g
       id="_x31_70-6"
       transform="translate(50.713786,1068.4336)" />
    <g
       id="_x31_71-2"
       transform="translate(50.713786,1068.4336)" />
    <g
       id="_x31_72-6"
       transform="translate(50.713786,1068.4336)" />
    <g
       id="_x31_73-5"
       transform="translate(50.713786,1068.4336)" />
    <g
       id="_x31_74-3"
       transform="translate(50.713786,1068.4336)" />
    <g
       id="_x31_75-9"
       transform="translate(50.713786,1068.4336)" />
    <g
       id="_x31_76-2"
       transform="translate(50.713786,1068.4336)" />
    <g
       id="_x31_77-4"
       transform="translate(50.713786,1068.4336)" />
    <g
       id="_x31_78-6"
       transform="translate(50.713786,1068.4336)" />
    <g
       id="_x31_79-1"
       transform="translate(50.713786,1068.4336)" />
    <g
       id="_x31_80-8"
       transform="translate(50.713786,1068.4336)" />
    <g
       id="_x31_81-2"
       transform="translate(50.713786,1068.4336)" />
    <g
       id="_x31_82-1"
       transform="translate(50.713786,1068.4336)" />
    <g
       id="_x31_83-1"
       transform="translate(50.713786,1068.4336)" />
    <g
       id="_x31_84-9"
       transform="translate(50.713786,1068.4336)" />
    <g
       id="_x31_85-7"
       transform="translate(50.713786,1068.4336)" />
    <g
       id="_x31_86-6"
       transform="translate(50.713786,1068.4336)" />
    <g
       id="_x31_87-2"
       transform="translate(50.713786,1068.4336)" />
    <g
       id="_x31_88-9"
       transform="translate(50.713786,1068.4336)" />
    <g
       id="_x31_89-5"
       transform="translate(50.713786,1068.4336)" />
    <g
       id="_x31_90-2"
       transform="translate(50.713786,1068.4336)" />
    <text
       xml:space="preserve"
       style="font-size:14px;font-style:normal;font-weight:bold;line-height:125%;letter-spacing:0px;word-spacing:0px;fill:#000000;fill-opacity:1;stroke:none;font-family:Sans;-inkscape-font-specification:Sans Bold"
       x="299.3941"
       y="917.50507"
       id="text19600"
       sodipodi:linespacing="125%"><tspan
         sodipodi:role="line"
         id="tspan19602"
         x="299.3941"
         y="917.50507">JExtract</tspan></text>
    <g
       id="g20171"
       transform="translate(611.3768,978.36927)">
      <g
         id="text-0" />
      <g
         id="_x31_-0" />
      <g
         id="_x32_-39" />
      <g
         id="_x33__1_-1" />
      <g
         id="_x34_-8" />
      <g
         id="_x35_-1" />
      <g
         id="_x36_-9" />
      <g
         id="_x37_-5" />
      <g
         id="_x38_-3" />
      <g
         id="_x39_-2" />
      <g
         id="_x31_0-5" />
      <g
         id="_x31_1-2" />
      <g
         id="_x31_2-5" />
      <g
         id="_x31_3-86" />
      <g
         id="_x31_4-7" />
      <g
         id="_x31_5-7" />
      <g
         id="_x31_6-2" />
      <g
         id="_x31_7-2" />
      <g
         id="_x31_8-9" />
      <g
         id="_x31_9-4" />
      <g
         id="_x32_0-1" />
      <g
         id="_x32_1-9" />
      <g
         id="_x32_2-6" />
      <g
         id="_x32_3-9" />
      <g
         id="_x32_4-8" />
      <g
         id="_x32_5-2" />
      <g
         id="_x32_6-5" />
      <g
         id="_x32_7-5" />
      <g
         id="_x32_8-49" />
      <g
         id="_x32_9-1" />
      <g
         id="_x33_0-2" />
      <g
         id="_x33_1-5" />
      <g
         id="_x33_2-0" />
      <g
         id="_x33_3-8" />
      <g
         id="_x33_4-3" />
      <g
         id="_x33_5-9" />
      <g
         id="_x33_6-3" />
      <g
         id="_x33_7-9" />
      <g
         id="_x33_8-6" />
      <g
         id="_x33_9-7" />
      <g
         id="_x34_0-9" />
      <g
         id="_x34_1-9" />
      <g
         id="_x34_2-76" />
      <g
         id="_x34_3-9" />
      <g
         id="_x34_4-3" />
      <g
         id="_x34_5-5" />
      <g
         id="_x34_6-7" />
      <g
         id="_x34_7-66" />
      <g
         id="_x34_8-58" />
      <g
         id="_x34_9-2" />
      <g
         id="_x35_0-54" />
      <g
         id="_x35_1-41" />
      <g
         id="_x35_2-6" />
      <g
         id="_x35_3-1" />
      <g
         id="_x35_4-6" />
      <g
         id="_x35_5-3" />
      <g
         id="_x35_6-3" />
      <g
         id="_x35_7-5" />
      <g
         id="_x35_8-5" />
      <g
         id="_x35_9-3" />
      <g
         id="_x36_0-2" />
      <g
         id="_x36_1-8" />
      <g
         id="_x36_2-2" />
      <g
         id="_x36_3-5" />
      <g
         id="_x36_4-3" />
      <g
         id="_x36_5-6" />
      <g
         id="_x36_6-1" />
      <g
         id="_x36_7-8" />
      <g
         id="_x36_8-6" />
      <g
         id="_x36_9-2" />
      <g
         id="_x37_0-1" />
      <g
         id="_x37_1-4" />
      <g
         id="_x37_2-6" />
      <g
         id="_x37_3-2" />
      <g
         id="_x37_4-9" />
      <g
         id="_x37_5-1" />
      <g
         id="_x37_6-5" />
      <g
         id="_x37_7-03" />
      <g
         id="_x37_8-6" />
      <g
         id="_x37_9-4" />
      <g
         id="_x38_0-9" />
      <g
         id="_x38_1-2" />
      <g
         id="_x38_2-9" />
      <g
         id="_x38_3-3" />
      <g
         id="_x38_4-4" />
      <g
         id="_x38_5-4" />
      <g
         id="_x38_6-0" />
      <g
         id="_x38_7-5" />
      <g
         id="_x38_8-9" />
      <g
         id="_x38_9-63" />
      <g
         id="_x39_0-4" />
      <g
         id="_x39_1-2" />
      <g
         id="_x39_2-8" />
      <g
         id="_x39_3-87" />
      <g
         id="_x39_4-5" />
      <g
         id="_x39_5-8" />
      <g
         id="_x39_6-1" />
      <g
         id="_x39_7-2" />
      <g
         id="_x39_8-5" />
      <g
         id="_x39_9-7" />
      <g
         id="_x31_00-4" />
      <g
         id="_x31_01-4" />
      <g
         id="_x31_02-4" />
      <g
         id="_x31_03-4" />
      <g
         id="_x31_04-4" />
      <g
         id="_x31_05-2" />
      <g
         id="_x31_06-9" />
      <g
         id="_x31_07-3" />
      <g
         id="_x31_08-0" />
      <g
         id="_x31_09-77" />
      <g
         id="_x31_10-8" />
      <g
         id="_x31_11-7" />
      <g
         id="_x31_12-3" />
      <g
         id="_x31_13-0" />
      <g
         id="_x31_14-3" />
      <g
         id="_x31_15-8" />
      <g
         id="_x31_16-2" />
      <g
         id="_x31_17-52" />
      <g
         id="_x31_18-0" />
      <g
         id="_x31_19-3" />
      <g
         id="_x31_20-7" />
      <g
         id="_x31_21-2" />
      <g
         id="_x31_22-9" />
      <g
         id="_x31_23-7" />
      <g
         id="_x31_24-5" />
      <g
         id="_x31_25-3" />
      <g
         id="_x31_26-4" />
      <g
         id="_x31_27-3" />
      <g
         id="_x31_28-2" />
      <g
         id="_x31_29-1" />
      <g
         id="_x31_30-1">
        <g
           id="g20085">
          <path
             id="path20087"
             d="m 22.797,19.06 c 6.418,0 5.836,0 12.254,0 1.611,0 1.611,-2.5 0,-2.5 -6.418,0 -5.836,0 -12.254,0 -1.611,0 -1.611,2.5 0,2.5 z"
             inkscape:connector-curvature="0" />
          <path
             id="path20089"
             d="m 35.051,23.477 c -6.418,0 -5.836,0 -12.254,0 -1.611,0 -1.611,2.5 0,2.5 6.418,0 5.836,0 12.254,0 1.611,0 1.611,-2.5 0,-2.5 z"
             inkscape:connector-curvature="0" />
          <path
             id="path20091"
             d="m 35.051,29.96 c -6.418,0 -5.836,0 -12.254,0 -1.611,0 -1.611,2.5 0,2.5 6.418,0 5.836,0 12.254,0 1.611,0 1.611,-2.5 0,-2.5 z"
             inkscape:connector-curvature="0" />
          <path
             id="path20093"
             d="m 35.051,36.877 c -6.418,0 -5.836,0 -12.254,0 -1.611,0 -1.611,2.5 0,2.5 6.418,0 5.836,0 12.254,0 1.611,0 1.611,-2.5 0,-2.5 z"
             inkscape:connector-curvature="0" />
          <path
             id="path20095"
             d="m 17.346,15.1 -0.355,0.513 c -0.434,0.624 -0.881,1.264 -1.256,1.938 -0.006,-0.006 -0.012,-0.013 -0.018,-0.02 l -0.23,-0.266 c -0.436,-0.498 -1.277,-0.333 -1.549,0.267 -0.158,0.348 -0.1,0.743 0.152,1.032 l 0.244,0.283 c 0.314,0.365 0.641,0.744 1.01,1.084 0.182,0.166 0.416,0.258 0.656,0.258 0.412,0 0.779,-0.269 0.914,-0.669 0.318,-0.952 0.975,-1.881 1.609,-2.78 0.146,-0.209 0.293,-0.414 0.432,-0.617 0.195,-0.286 0.219,-0.631 0.064,-0.924 -0.31,-0.589 -1.277,-0.678 -1.673,-0.099 z"
             inkscape:connector-curvature="0" />
          <path
             id="path20097"
             d="m 16.746,21.911 -0.355,0.514 c -0.436,0.623 -0.881,1.264 -1.258,1.938 -0.006,-0.007 -0.012,-0.014 -0.016,-0.02 l -0.232,-0.267 c -0.434,-0.497 -1.275,-0.331 -1.547,0.267 -0.158,0.348 -0.1,0.744 0.152,1.033 l 0.244,0.282 c 0.314,0.366 0.639,0.745 1.01,1.084 0.182,0.167 0.414,0.259 0.654,0.259 0.414,0 0.781,-0.27 0.916,-0.67 0.318,-0.951 0.973,-1.881 1.607,-2.779 0.148,-0.209 0.293,-0.415 0.432,-0.617 0.195,-0.287 0.221,-0.632 0.066,-0.924 -0.31,-0.589 -1.278,-0.679 -1.673,-0.1 z"
             inkscape:connector-curvature="0" />
          <path
             id="path20099"
             d="m 16.746,28.883 -0.355,0.513 c -0.436,0.624 -0.881,1.264 -1.258,1.938 -0.006,-0.006 -0.01,-0.013 -0.016,-0.02 l -0.232,-0.266 c -0.434,-0.498 -1.275,-0.332 -1.547,0.267 -0.158,0.348 -0.1,0.743 0.152,1.032 l 0.244,0.283 c 0.314,0.365 0.639,0.744 1.01,1.084 0.182,0.166 0.414,0.258 0.654,0.258 0.414,0 0.781,-0.269 0.916,-0.669 0.318,-0.952 0.973,-1.881 1.607,-2.78 0.148,-0.209 0.293,-0.414 0.432,-0.617 0.195,-0.286 0.221,-0.631 0.066,-0.924 -0.31,-0.588 -1.278,-0.678 -1.673,-0.099 z"
             inkscape:connector-curvature="0" />
          <path
             id="path20101"
             d="m 16.746,35.999 -0.355,0.514 c -0.436,0.623 -0.881,1.264 -1.258,1.938 -0.006,-0.007 -0.012,-0.014 -0.016,-0.02 l -0.232,-0.267 c -0.434,-0.498 -1.275,-0.332 -1.547,0.267 -0.158,0.348 -0.1,0.744 0.152,1.033 l 0.244,0.282 c 0.314,0.366 0.639,0.745 1.01,1.084 0.182,0.167 0.414,0.259 0.654,0.259 0.414,0 0.781,-0.27 0.916,-0.67 0.318,-0.951 0.973,-1.881 1.607,-2.779 0.148,-0.209 0.293,-0.415 0.432,-0.617 0.195,-0.287 0.221,-0.632 0.066,-0.924 -0.31,-0.588 -1.278,-0.679 -1.673,-0.1 z"
             inkscape:connector-curvature="0" />
          <path
             id="path20103"
             d="M 35.902,2.472 H 7.65 V 47.529 H 42.348 V 8.723 L 35.902,2.472 z m 3.447,42.056 H 10.65 V 5.472 h 23.706 v 4.76 h 4.992 v 34.296 z"
             inkscape:connector-curvature="0" />
        </g>
      </g>
      <g
         id="_x31_31-3" />
      <g
         id="_x31_32-2" />
      <g
         id="_x31_33-5" />
      <g
         id="_x31_34-35" />
      <g
         id="_x31_35-1" />
      <g
         id="_x31_36-2" />
      <g
         id="_x31_37-2" />
      <g
         id="_x31_38-2" />
      <g
         id="_x31_39-6" />
      <g
         id="_x31_40-4" />
      <g
         id="_x31_41-0" />
      <g
         id="_x31_42-7" />
      <g
         id="_x31_43-03" />
      <g
         id="_x31_44-4" />
      <g
         id="_x31_45-0" />
      <g
         id="_x31_46-0" />
      <g
         id="_x31_47-5" />
      <g
         id="_x31_48-3" />
      <g
         id="_x31_49-1" />
      <g
         id="_x31_50-0" />
      <g
         id="_x31_51-6" />
      <g
         id="_x31_52-7" />
      <g
         id="_x31_53-5" />
      <g
         id="_x31_54-0" />
      <g
         id="_x31_55-0" />
      <g
         id="_x31_56-4" />
      <g
         id="_x31_57-5" />
      <g
         id="_x31_58-4" />
      <g
         id="_x31_59-9" />
      <g
         id="_x31_60-5" />
      <g
         id="_x31_61-6" />
      <g
         id="_x31_62-4" />
      <g
         id="_x31_63-8" />
      <g
         id="_x31_64-2" />
      <g
         id="_x31_65-1" />
      <g
         id="_x31_66-6" />
      <g
         id="_x31_67-8" />
      <g
         id="_x31_68-3" />
      <g
         id="_x31_69-1" />
      <g
         id="_x31_70-4" />
      <g
         id="_x31_71-8" />
      <g
         id="_x31_72-4" />
      <g
         id="_x31_73-9" />
      <g
         id="_x31_74-2" />
      <g
         id="_x31_75-0" />
      <g
         id="_x31_76-7" />
      <g
         id="_x31_77-0" />
      <g
         id="_x31_78-60" />
      <g
         id="_x31_79-7" />
      <g
         id="_x31_80-0" />
      <g
         id="_x31_81-5" />
      <g
         id="_x31_82-6" />
      <g
         id="_x31_83-7" />
      <g
         id="_x31_84-3" />
      <g
         id="_x31_85-8" />
      <g
         id="_x31_86-4" />
      <g
         id="_x31_87-9" />
      <g
         id="_x31_88-2" />
      <g
         id="_x31_89-6" />
      <g
         id="_x31_90-5" />
    </g>
    <path
       style="fill:#ffffff;fill-opacity:1;stroke:#000000;stroke-width:1.5;stroke-opacity:1"
       d="m 89.303562,981.28608 0,6.9746 -5.71875,0 0,6.7754 5.71875,0 0,6.57612 10.999998,-10.16302 -10.999998,-10.1631 z"
       id="path13950-1-0-8"
       inkscape:connector-curvature="0" />
    <path
       style="fill:#ffffff;fill-opacity:1;stroke:#000000;stroke-width:1.5;stroke-opacity:1"
       d="m 572.64125,981.28606 0,6.9746 -5.71875,0 0,6.7754 5.71875,0 0,6.57614 10.99999,-10.16304 -10.99999,-10.1631 z"
       id="path13950-1-0-8-3"
       inkscape:connector-curvature="0" />
    <path
       style="fill:#ffffff;fill-opacity:1;stroke:#000000;stroke-width:1.5;stroke-opacity:1"
       d="m 289.87976,981.28605 0,6.9746 -5.71875,0 0,6.7754 5.71875,0 0,6.57615 11,-10.16305 -11,-10.1631 z"
       id="path13950-1-0-8-6"
       inkscape:connector-curvature="0" />
    <path
       style="fill:#ffffff;fill-opacity:1;stroke:#000000;stroke-width:1.5;stroke-opacity:1"
       d="m 417.56253,981.28611 0,6.9746 -5.71875,0 0,6.7754 5.71875,0 0,6.57609 11,-10.16299 -11,-10.1631 z"
       id="path13950-1-0-8-6-6"
       inkscape:connector-curvature="0" />
  </g>
</svg>
