----------------------------
ant-1.8.2
----------------------------
total:     00810 01602 02375 
correct:   00162 00268 00346 
precision: 0,200 0,167 0,146 
recall:    0,200 0,331 0,427 
----------------------------