----------------------------
quartz-1.8.3
----------------------------
total:     00239 00471 00696 
correct:   00095 00115 00133 
precision: 0,397 0,244 0,191 
recall:    0,397 0,481 0,556 
----------------------------